# MagicaVoxel @ Ephtracy

# group
g PartialTree

# material
mtllib PartialTree.mtl
usemtl palette

# normals
vn -1 0 0
vn 1 0 0
vn 0 0 1
vn 0 0 -1
vn 0 -1 0
vn 0 1 0

# texcoords
vt 0.00195313 0.5

# verts
v -8.5 0 -7
v -8.5 0 -9
v -8.5 1 -7
v -8.5 1 -9
v -7.5 0 -6
v -7.5 0 -7
v -7.5 1 -6
v -7.5 1 -7
v -6.5 0 3
v -6.5 0 2
v -6.5 0 -2
v -6.5 0 -6
v -6.5 1 3
v -6.5 1 2
v -6.5 1 -2
v -6.5 1 -6
v -5.5 0 2
v -5.5 0 1
v -5.5 1 2
v -5.5 1 1
v -5.5 1 -2
v -5.5 1 -5
v -5.5 2 -2
v -5.5 2 -5
v -4.5 0 5
v -4.5 0 3
v -4.5 0 1
v -4.5 0 -2
v -4.5 1 5
v -4.5 1 4
v -4.5 1 3
v -4.5 1 2
v -4.5 1 1
v -4.5 1 -0
v -4.5 1 -5
v -4.5 1 -6
v -4.5 2 4
v -4.5 2 2
v -4.5 2 -0
v -4.5 2 -1
v -4.5 2 -2
v -4.5 2 -3
v -4.5 2 -5
v -4.5 2 -6
v -4.5 3 -1
v -4.5 3 -3
v -4.5 13 2
v -4.5 13 -3
v -4.5 19 2
v -4.5 19 1
v -4.5 19 -2
v -4.5 19 -3
v -4.5 25 2
v -4.5 25 1
v -4.5 30 2
v -4.5 30 -2
v -3.5 1 2
v -3.5 1 -0
v -3.5 2 3
v -3.5 2 2
v -3.5 2 -0
v -3.5 2 -1
v -3.5 2 -3
v -3.5 2 -4
v -3.5 3 3
v -3.5 3 2
v -3.5 3 -1
v -3.5 3 -3
v -3.5 3 -4
v -3.5 9 3
v -3.5 9 2
v -3.5 13 2
v -3.5 13 -3
v -3.5 13 -4
v -3.5 15 -4
v -3.5 15 -5
v -3.5 19 2
v -3.5 19 1
v -3.5 19 -2
v -3.5 19 -3
v -3.5 19 -5
v -3.5 25 4
v -3.5 25 3
v -3.5 25 2
v -3.5 25 1
v -3.5 30 4
v -3.5 30 2
v -3.5 30 -2
v -3.5 40 2
v -3.5 40 -3
v -2.5 0 6
v -2.5 0 5
v -2.5 1 5
v -2.5 1 4
v -2.5 2 6
v -2.5 2 4
v -2.5 3 3
v -2.5 3 2
v -2.5 3 -3
v -2.5 3 -4
v -2.5 9 4
v -2.5 9 3
v -2.5 9 2
v -2.5 12 4
v -2.5 12 3
v -2.5 13 -3
v -2.5 13 -4
v -2.5 19 -3
v -2.5 19 -5
v -2.5 30 3
v -2.5 30 2
v -2.5 33 3
v -2.5 33 2
v -2.5 34 -4
v -2.5 34 -5
v -2.5 40 -3
v -2.5 40 -4
v -1.5 0 8
v -1.5 0 6
v -1.5 1 8
v -1.5 1 7
v -1.5 2 7
v -1.5 2 6
v -1.5 2 5
v -1.5 2 3
v -1.5 3 5
v -1.5 3 3
v -1.5 12 4
v -1.5 12 3
v -1.5 13 4
v -1.5 13 3
v -0.5 0 9
v -0.5 0 8
v -0.5 1 9
v -0.5 1 8
v 0.5 1 -4
v 0.5 1 -5
v 0.5 3 -4
v 0.5 3 -5
v 1.5 0 -5
v 1.5 0 -7
v 1.5 1 -6
v 1.5 1 -7
v 1.5 2 -5
v 1.5 2 -6
v 3.5 0 -2
v 3.5 0 -4
v 3.5 1 -2
v 3.5 1 -4
v 4.5 0 6
v 4.5 0 5
v 4.5 1 6
v 4.5 1 5
v -7.5 0 -8
v -7.5 0 -9
v -7.5 1 -8
v -7.5 1 -9
v -5.5 0 -7
v -5.5 0 -8
v -5.5 1 -7
v -5.5 1 -8
v -3.5 0 -5
v -3.5 0 -7
v -3.5 1 -4
v -3.5 1 -5
v -3.5 1 -6
v -3.5 1 -7
v -3.5 2 -4
v -3.5 2 -6
v -0.5 2 5
v -0.5 2 4
v -0.5 3 5
v -0.5 3 4
v -0.5 33 -4
v -0.5 33 -5
v -0.5 34 -4
v -0.5 34 -5
v 0.5 0 9
v 0.5 0 7
v 0.5 1 9
v 0.5 1 7
v 0.5 1 6
v 0.5 2 7
v 0.5 2 6
v 0.5 2 4
v 0.5 2 3
v 0.5 3 4
v 0.5 3 3
v 0.5 12 4
v 0.5 12 3
v 0.5 13 4
v 0.5 13 3
v 0.5 19 -4
v 0.5 19 -5
v 0.5 33 2
v 0.5 33 1
v 0.5 33 -4
v 0.5 33 -5
v 0.5 40 2
v 0.5 40 1
v 1.5 0 7
v 1.5 0 5
v 1.5 1 7
v 1.5 1 6
v 1.5 1 5
v 1.5 1 4
v 1.5 2 6
v 1.5 2 4
v 1.5 3 3
v 1.5 3 2
v 1.5 3 -3
v 1.5 3 -4
v 1.5 9 4
v 1.5 9 3
v 1.5 9 2
v 1.5 12 4
v 1.5 12 3
v 1.5 15 -3
v 1.5 15 -4
v 1.5 15 -5
v 1.5 19 -4
v 1.5 19 -5
v 1.5 30 3
v 1.5 30 1
v 1.5 31 -3
v 1.5 31 -4
v 1.5 33 3
v 1.5 33 1
v 1.5 40 -3
v 1.5 40 -4
v 2.5 0 -2
v 2.5 0 -4
v 2.5 1 2
v 2.5 1 -2
v 2.5 1 -4
v 2.5 1 -5
v 2.5 1 -6
v 2.5 2 3
v 2.5 2 2
v 2.5 2 -4
v 2.5 2 -5
v 2.5 2 -6
v 2.5 3 3
v 2.5 3 2
v 2.5 3 -2
v 2.5 3 -3
v 2.5 3 -4
v 2.5 3 -5
v 2.5 9 3
v 2.5 9 2
v 2.5 15 1
v 2.5 15 -2
v 2.5 15 -3
v 2.5 15 -4
v 2.5 16 2
v 2.5 16 1
v 2.5 16 -2
v 2.5 16 -3
v 2.5 25 4
v 2.5 25 3
v 2.5 25 2
v 2.5 30 4
v 2.5 30 3
v 2.5 30 1
v 2.5 30 -3
v 2.5 31 -3
v 2.5 31 -4
v 2.5 40 1
v 2.5 40 -3
v 3.5 0 3
v 3.5 0 1
v 3.5 0 -4
v 3.5 0 -6
v 3.5 1 4
v 3.5 1 3
v 3.5 1 2
v 3.5 1 1
v 3.5 1 -5
v 3.5 1 -6
v 3.5 2 4
v 3.5 2 2
v 3.5 2 -2
v 3.5 2 -4
v 3.5 2 -5
v 3.5 3 -2
v 3.5 3 -4
v 3.5 15 1
v 3.5 15 -2
v 3.5 16 2
v 3.5 16 1
v 3.5 16 -2
v 3.5 16 -3
v 3.5 25 3
v 3.5 25 2
v 3.5 30 3
v 3.5 30 -3
v 4.5 0 1
v 4.5 0 -1
v 4.5 0 -6
v 4.5 0 -7
v 4.5 1 1
v 4.5 1 -1
v 4.5 1 -6
v 4.5 1 -7
v 5.5 0 4
v 5.5 0 3
v 5.5 0 -1
v 5.5 0 -2
v 5.5 1 4
v 5.5 1 3
v 5.5 1 -1
v 5.5 1 -2
v 5.5 1 -3
v 5.5 1 -4
v 5.5 2 -3
v 5.5 2 -4
v 6.5 0 6
v 6.5 0 4
v 6.5 1 6
v 6.5 1 4
v 6.5 1 -2
v 6.5 1 -3
v 6.5 2 -2
v 6.5 2 -3
v 7.5 0 -2
v 7.5 0 -3
v 7.5 1 -2
v 7.5 1 -3
v 8.5 0 -3
v 8.5 0 -4
v 8.5 1 -3
v 8.5 1 -4
v -0.5 0 9
v -0.5 1 9
v 0.5 0 9
v 0.5 1 9
v -1.5 0 8
v -1.5 1 8
v -0.5 0 8
v -0.5 1 8
v -1.5 1 7
v -1.5 2 7
v 0.5 0 7
v 0.5 1 7
v 0.5 2 7
v 1.5 0 7
v 1.5 1 7
v -2.5 0 6
v -2.5 2 6
v -1.5 0 6
v -1.5 2 6
v 0.5 1 6
v 0.5 2 6
v 1.5 1 6
v 1.5 2 6
v 4.5 0 6
v 4.5 1 6
v 6.5 0 6
v 6.5 1 6
v -4.5 0 5
v -4.5 1 5
v -2.5 0 5
v -2.5 1 5
v -1.5 2 5
v -1.5 3 5
v -0.5 2 5
v -0.5 3 5
v 1.5 0 5
v 1.5 1 5
v 4.5 0 5
v 4.5 1 5
v -4.5 1 4
v -4.5 2 4
v -3.5 25 4
v -3.5 30 4
v -2.5 1 4
v -2.5 2 4
v -2.5 9 4
v -2.5 12 4
v -1.5 12 4
v -1.5 13 4
v -0.5 2 4
v -0.5 3 4
v 0.5 2 4
v 0.5 3 4
v 0.5 12 4
v 0.5 13 4
v 1.5 1 4
v 1.5 2 4
v 1.5 9 4
v 1.5 12 4
v 2.5 25 4
v 2.5 30 4
v 3.5 1 4
v 3.5 2 4
v -6.5 0 3
v -6.5 1 3
v -4.5 0 3
v -4.5 1 3
v -3.5 2 3
v -3.5 3 3
v -3.5 9 3
v -3.5 25 3
v -2.5 3 3
v -2.5 9 3
v -2.5 12 3
v -2.5 30 3
v -2.5 33 3
v -1.5 2 3
v -1.5 3 3
v -1.5 12 3
v -1.5 13 3
v 0.5 2 3
v 0.5 3 3
v 0.5 12 3
v 0.5 13 3
v 1.5 3 3
v 1.5 9 3
v 1.5 12 3
v 1.5 30 3
v 1.5 33 3
v 2.5 2 3
v 2.5 3 3
v 2.5 9 3
v 2.5 25 3
v 2.5 30 3
v 3.5 25 3
v 3.5 30 3
v -4.5 13 2
v -4.5 19 2
v -4.5 25 2
v -4.5 30 2
v -3.5 3 2
v -3.5 9 2
v -3.5 13 2
v -3.5 19 2
v -3.5 25 2
v -3.5 30 2
v -3.5 40 2
v -2.5 3 2
v -2.5 9 2
v -2.5 30 2
v -2.5 33 2
v 0.5 33 2
v 0.5 40 2
v 1.5 3 2
v 1.5 9 2
v 2.5 3 2
v 2.5 9 2
v 2.5 16 2
v 2.5 25 2
v 3.5 16 2
v 3.5 25 2
v -4.5 19 1
v -4.5 25 1
v -3.5 19 1
v -3.5 25 1
v 0.5 33 1
v 0.5 40 1
v 1.5 30 1
v 1.5 33 1
v 2.5 15 1
v 2.5 16 1
v 2.5 30 1
v 2.5 40 1
v 3.5 0 1
v 3.5 1 1
v 3.5 15 1
v 3.5 16 1
v 4.5 0 1
v 4.5 1 1
v -4.5 1 -0
v -4.5 2 -0
v -3.5 1 -0
v -3.5 2 -0
v -4.5 2 -1
v -4.5 3 -1
v -3.5 2 -1
v -3.5 3 -1
v 4.5 0 -1
v 4.5 1 -1
v 5.5 0 -1
v 5.5 1 -1
v -6.5 0 -2
v -6.5 1 -2
v -5.5 1 -2
v -5.5 2 -2
v -4.5 0 -2
v -4.5 2 -2
v 2.5 1 -2
v 2.5 3 -2
v 3.5 2 -2
v 3.5 3 -2
v 5.5 0 -2
v 5.5 1 -2
v 6.5 1 -2
v 6.5 2 -2
v 7.5 0 -2
v 7.5 1 -2
v 7.5 0 -3
v 7.5 1 -3
v 8.5 0 -3
v 8.5 1 -3
v 2.5 0 -4
v 2.5 1 -4
v 3.5 0 -4
v 3.5 1 -4
v -7.5 0 -6
v -7.5 1 -6
v -6.5 0 -6
v -6.5 1 -6
v 3.5 0 -6
v 3.5 1 -6
v 4.5 0 -6
v 4.5 1 -6
v -8.5 0 -7
v -8.5 1 -7
v -7.5 0 -7
v -7.5 1 -7
v 5.5 0 4
v 5.5 1 4
v 6.5 0 4
v 6.5 1 4
v 3.5 0 3
v 3.5 1 3
v 5.5 0 3
v 5.5 1 3
v -6.5 0 2
v -6.5 1 2
v -5.5 0 2
v -5.5 1 2
v -4.5 1 2
v -4.5 2 2
v -3.5 1 2
v -3.5 2 2
v 2.5 1 2
v 2.5 2 2
v 3.5 1 2
v 3.5 2 2
v -5.5 0 1
v -5.5 1 1
v -4.5 0 1
v -4.5 1 1
v -4.5 19 -2
v -4.5 30 -2
v -3.5 19 -2
v -3.5 30 -2
v 2.5 0 -2
v 2.5 1 -2
v 2.5 15 -2
v 2.5 16 -2
v 3.5 0 -2
v 3.5 1 -2
v 3.5 15 -2
v 3.5 16 -2
v -4.5 2 -3
v -4.5 3 -3
v -4.5 13 -3
v -4.5 19 -3
v -3.5 2 -3
v -3.5 3 -3
v -3.5 13 -3
v -3.5 19 -3
v -3.5 40 -3
v -2.5 3 -3
v -2.5 13 -3
v -2.5 19 -3
v -2.5 40 -3
v 1.5 3 -3
v 1.5 15 -3
v 1.5 31 -3
v 1.5 40 -3
v 2.5 3 -3
v 2.5 15 -3
v 2.5 16 -3
v 2.5 30 -3
v 2.5 31 -3
v 2.5 40 -3
v 3.5 16 -3
v 3.5 30 -3
v 5.5 1 -3
v 5.5 2 -3
v 6.5 1 -3
v 6.5 2 -3
v -3.5 1 -4
v -3.5 2 -4
v -3.5 3 -4
v -3.5 13 -4
v -3.5 15 -4
v -2.5 3 -4
v -2.5 13 -4
v -2.5 34 -4
v -2.5 40 -4
v -0.5 33 -4
v -0.5 34 -4
v 0.5 1 -4
v 0.5 3 -4
v 0.5 19 -4
v 0.5 33 -4
v 1.5 3 -4
v 1.5 15 -4
v 1.5 19 -4
v 1.5 31 -4
v 1.5 40 -4
v 2.5 2 -4
v 2.5 3 -4
v 2.5 15 -4
v 2.5 31 -4
v 3.5 0 -4
v 3.5 2 -4
v 3.5 3 -4
v 5.5 1 -4
v 5.5 2 -4
v 8.5 0 -4
v 8.5 1 -4
v -5.5 1 -5
v -5.5 2 -5
v -4.5 1 -5
v -4.5 2 -5
v -3.5 0 -5
v -3.5 1 -5
v -3.5 15 -5
v -3.5 19 -5
v -2.5 19 -5
v -2.5 34 -5
v -0.5 33 -5
v -0.5 34 -5
v 0.5 1 -5
v 0.5 3 -5
v 0.5 19 -5
v 0.5 33 -5
v 1.5 0 -5
v 1.5 2 -5
v 1.5 15 -5
v 1.5 19 -5
v 2.5 1 -5
v 2.5 2 -5
v 2.5 3 -5
v 3.5 1 -5
v 3.5 2 -5
v -4.5 1 -6
v -4.5 2 -6
v -3.5 1 -6
v -3.5 2 -6
v 1.5 1 -6
v 1.5 2 -6
v 2.5 1 -6
v 2.5 2 -6
v -5.5 0 -7
v -5.5 1 -7
v -3.5 0 -7
v -3.5 1 -7
v 1.5 0 -7
v 1.5 1 -7
v 4.5 0 -7
v 4.5 1 -7
v -7.5 0 -8
v -7.5 1 -8
v -5.5 0 -8
v -5.5 1 -8
v -8.5 0 -9
v -8.5 1 -9
v -7.5 0 -9
v -7.5 1 -9
v -0.5 0 9
v 0.5 0 9
v -1.5 0 8
v -0.5 0 8
v 0.5 0 7
v 1.5 0 7
v -2.5 0 6
v -1.5 0 6
v 4.5 0 6
v 6.5 0 6
v -4.5 0 5
v -2.5 0 5
v 1.5 0 5
v 4.5 0 5
v 5.5 0 4
v 6.5 0 4
v -6.5 0 3
v -4.5 0 3
v 3.5 0 3
v 5.5 0 3
v -6.5 0 2
v -5.5 0 2
v -5.5 0 1
v -4.5 0 1
v 3.5 0 1
v 4.5 0 1
v 4.5 0 -1
v 5.5 0 -1
v -6.5 0 -2
v -4.5 0 -2
v 2.5 0 -2
v 3.5 0 -2
v 5.5 0 -2
v 7.5 0 -2
v 7.5 0 -3
v 8.5 0 -3
v 2.5 0 -4
v 3.5 0 -4
v 8.5 0 -4
v -3.5 0 -5
v 1.5 0 -5
v -7.5 0 -6
v -6.5 0 -6
v 3.5 0 -6
v 4.5 0 -6
v -8.5 0 -7
v -7.5 0 -7
v -5.5 0 -7
v -3.5 0 -7
v 1.5 0 -7
v 4.5 0 -7
v -7.5 0 -8
v -5.5 0 -8
v -8.5 0 -9
v -7.5 0 -9
v 2.5 1 -2
v 3.5 1 -2
v 2.5 1 -4
v 3.5 1 -4
v -2.5 9 4
v 1.5 9 4
v -3.5 9 3
v -2.5 9 3
v 1.5 9 3
v 2.5 9 3
v -3.5 9 2
v -2.5 9 2
v 1.5 9 2
v 2.5 9 2
v -4.5 13 2
v -3.5 13 2
v -4.5 13 -3
v -3.5 13 -3
v -2.5 13 -3
v -3.5 13 -4
v -2.5 13 -4
v 2.5 15 1
v 3.5 15 1
v 2.5 15 -2
v 3.5 15 -2
v 1.5 15 -3
v 2.5 15 -3
v -3.5 15 -4
v 1.5 15 -4
v 2.5 15 -4
v -3.5 15 -5
v 1.5 15 -5
v 2.5 16 2
v 3.5 16 2
v 2.5 16 1
v 3.5 16 1
v 2.5 16 -2
v 3.5 16 -2
v 2.5 16 -3
v 3.5 16 -3
v -3.5 25 4
v 2.5 25 4
v -3.5 25 3
v 2.5 25 3
v 3.5 25 3
v -4.5 25 2
v -3.5 25 2
v 2.5 25 2
v 3.5 25 2
v -4.5 25 1
v -3.5 25 1
v -0.5 1 9
v 0.5 1 9
v -1.5 1 8
v -0.5 1 8
v -1.5 1 7
v 0.5 1 7
v 1.5 1 7
v 0.5 1 6
v 1.5 1 6
v 4.5 1 6
v 6.5 1 6
v -4.5 1 5
v -2.5 1 5
v 1.5 1 5
v 4.5 1 5
v -4.5 1 4
v -2.5 1 4
v 1.5 1 4
v 3.5 1 4
v 5.5 1 4
v 6.5 1 4
v -6.5 1 3
v -4.5 1 3
v 3.5 1 3
v 5.5 1 3
v -6.5 1 2
v -5.5 1 2
v -4.5 1 2
v -3.5 1 2
v 2.5 1 2
v 3.5 1 2
v -5.5 1 1
v -4.5 1 1
v 3.5 1 1
v 4.5 1 1
v -4.5 1 -0
v -3.5 1 -0
v 4.5 1 -1
v 5.5 1 -1
v -6.5 1 -2
v -5.5 1 -2
v 2.5 1 -2
v 5.5 1 -2
v 6.5 1 -2
v 7.5 1 -2
v 5.5 1 -3
v 6.5 1 -3
v 7.5 1 -3
v 8.5 1 -3
v -3.5 1 -4
v 0.5 1 -4
v 5.5 1 -4
v 8.5 1 -4
v -5.5 1 -5
v -4.5 1 -5
v -3.5 1 -5
v 0.5 1 -5
v 2.5 1 -5
v 3.5 1 -5
v -7.5 1 -6
v -6.5 1 -6
v -4.5 1 -6
v -3.5 1 -6
v 1.5 1 -6
v 2.5 1 -6
v 3.5 1 -6
v 4.5 1 -6
v -8.5 1 -7
v -7.5 1 -7
v -5.5 1 -7
v -3.5 1 -7
v 1.5 1 -7
v 4.5 1 -7
v -7.5 1 -8
v -5.5 1 -8
v -8.5 1 -9
v -7.5 1 -9
v -1.5 2 7
v 0.5 2 7
v -2.5 2 6
v -1.5 2 6
v 0.5 2 6
v 1.5 2 6
v -1.5 2 5
v -0.5 2 5
v -4.5 2 4
v -2.5 2 4
v -0.5 2 4
v 0.5 2 4
v 1.5 2 4
v 3.5 2 4
v -3.5 2 3
v -1.5 2 3
v 0.5 2 3
v 2.5 2 3
v -4.5 2 2
v -3.5 2 2
v 2.5 2 2
v 3.5 2 2
v -4.5 2 -0
v -3.5 2 -0
v -4.5 2 -1
v -3.5 2 -1
v -5.5 2 -2
v -4.5 2 -2
v 3.5 2 -2
v 6.5 2 -2
v -4.5 2 -3
v -3.5 2 -3
v 5.5 2 -3
v 6.5 2 -3
v -3.5 2 -4
v 2.5 2 -4
v 3.5 2 -4
v 5.5 2 -4
v -5.5 2 -5
v -4.5 2 -5
v 1.5 2 -5
v 2.5 2 -5
v 3.5 2 -5
v -4.5 2 -6
v -3.5 2 -6
v 1.5 2 -6
v 2.5 2 -6
v -1.5 3 5
v -0.5 3 5
v -0.5 3 4
v 0.5 3 4
v -3.5 3 3
v -2.5 3 3
v -1.5 3 3
v 0.5 3 3
v 1.5 3 3
v 2.5 3 3
v -3.5 3 2
v -2.5 3 2
v 1.5 3 2
v 2.5 3 2
v -4.5 3 -1
v -3.5 3 -1
v 2.5 3 -2
v 3.5 3 -2
v -4.5 3 -3
v -3.5 3 -3
v -2.5 3 -3
v 1.5 3 -3
v 2.5 3 -3
v -3.5 3 -4
v -2.5 3 -4
v 0.5 3 -4
v 1.5 3 -4
v 2.5 3 -4
v 3.5 3 -4
v 0.5 3 -5
v 2.5 3 -5
v -2.5 12 4
v -1.5 12 4
v 0.5 12 4
v 1.5 12 4
v -2.5 12 3
v -1.5 12 3
v 0.5 12 3
v 1.5 12 3
v -1.5 13 4
v 0.5 13 4
v -1.5 13 3
v 0.5 13 3
v -4.5 19 2
v -3.5 19 2
v -4.5 19 1
v -3.5 19 1
v -4.5 19 -2
v -3.5 19 -2
v -4.5 19 -3
v -3.5 19 -3
v -2.5 19 -3
v 0.5 19 -4
v 1.5 19 -4
v -3.5 19 -5
v -2.5 19 -5
v 0.5 19 -5
v 1.5 19 -5
v -3.5 30 4
v 2.5 30 4
v -2.5 30 3
v 1.5 30 3
v 2.5 30 3
v 3.5 30 3
v -4.5 30 2
v -3.5 30 2
v -2.5 30 2
v 1.5 30 1
v 2.5 30 1
v -4.5 30 -2
v -3.5 30 -2
v 2.5 30 -3
v 3.5 30 -3
v 1.5 31 -3
v 2.5 31 -3
v 1.5 31 -4
v 2.5 31 -4
v -2.5 33 3
v 1.5 33 3
v -2.5 33 2
v 0.5 33 2
v 0.5 33 1
v 1.5 33 1
v -0.5 33 -4
v 0.5 33 -4
v -0.5 33 -5
v 0.5 33 -5
v -2.5 34 -4
v -0.5 34 -4
v -2.5 34 -5
v -0.5 34 -5
v -3.5 40 2
v 0.5 40 2
v 0.5 40 1
v 2.5 40 1
v -3.5 40 -3
v -2.5 40 -3
v 1.5 40 -3
v 2.5 40 -3
v -2.5 40 -4
v 1.5 40 -4

# faces
f 3/1/1 2/1/1 1/1/1
f 4/1/1 2/1/1 3/1/1
f 7/1/1 6/1/1 5/1/1
f 8/1/1 6/1/1 7/1/1
f 13/1/1 10/1/1 9/1/1
f 14/1/1 10/1/1 13/1/1
f 15/1/1 12/1/1 11/1/1
f 16/1/1 12/1/1 15/1/1
f 19/1/1 18/1/1 17/1/1
f 20/1/1 18/1/1 19/1/1
f 23/1/1 22/1/1 21/1/1
f 24/1/1 22/1/1 23/1/1
f 29/1/1 26/1/1 25/1/1
f 30/1/1 26/1/1 29/1/1
f 31/1/1 26/1/1 30/1/1
f 33/1/1 28/1/1 27/1/1
f 34/1/1 28/1/1 33/1/1
f 37/1/1 32/1/1 31/1/1
f 37/1/1 31/1/1 30/1/1
f 38/1/1 32/1/1 37/1/1
f 39/1/1 28/1/1 34/1/1
f 40/1/1 28/1/1 39/1/1
f 41/1/1 28/1/1 40/1/1
f 43/1/1 36/1/1 35/1/1
f 44/1/1 36/1/1 43/1/1
f 45/1/1 42/1/1 41/1/1
f 45/1/1 41/1/1 40/1/1
f 46/1/1 42/1/1 45/1/1
f 49/1/1 48/1/1 47/1/1
f 50/1/1 48/1/1 49/1/1
f 51/1/1 48/1/1 50/1/1
f 52/1/1 48/1/1 51/1/1
f 54/1/1 51/1/1 50/1/1
f 55/1/1 54/1/1 53/1/1
f 56/1/1 51/1/1 54/1/1
f 56/1/1 54/1/1 55/1/1
f 60/1/1 58/1/1 57/1/1
f 61/1/1 58/1/1 60/1/1
f 65/1/1 60/1/1 59/1/1
f 65/1/1 61/1/1 60/1/1
f 65/1/1 62/1/1 61/1/1
f 66/1/1 62/1/1 65/1/1
f 67/1/1 62/1/1 66/1/1
f 68/1/1 64/1/1 63/1/1
f 69/1/1 64/1/1 68/1/1
f 71/1/1 67/1/1 66/1/1
f 71/1/1 68/1/1 67/1/1
f 72/1/1 68/1/1 71/1/1
f 72/1/1 71/1/1 70/1/1
f 73/1/1 68/1/1 72/1/1
f 75/1/1 74/1/1 73/1/1
f 77/1/1 72/1/1 70/1/1
f 80/1/1 75/1/1 73/1/1
f 80/1/1 76/1/1 75/1/1
f 81/1/1 76/1/1 80/1/1
f 83/1/1 78/1/1 77/1/1
f 83/1/1 77/1/1 70/1/1
f 84/1/1 78/1/1 83/1/1
f 85/1/1 78/1/1 84/1/1
f 86/1/1 83/1/1 82/1/1
f 86/1/1 84/1/1 83/1/1
f 87/1/1 84/1/1 86/1/1
f 88/1/1 80/1/1 79/1/1
f 89/1/1 88/1/1 87/1/1
f 90/1/1 80/1/1 88/1/1
f 90/1/1 88/1/1 89/1/1
f 93/1/1 92/1/1 91/1/1
f 95/1/1 93/1/1 91/1/1
f 95/1/1 94/1/1 93/1/1
f 96/1/1 94/1/1 95/1/1
f 102/1/1 98/1/1 97/1/1
f 103/1/1 98/1/1 102/1/1
f 104/1/1 102/1/1 101/1/1
f 105/1/1 102/1/1 104/1/1
f 106/1/1 100/1/1 99/1/1
f 107/1/1 100/1/1 106/1/1
f 112/1/1 111/1/1 110/1/1
f 113/1/1 111/1/1 112/1/1
f 114/1/1 109/1/1 108/1/1
f 115/1/1 109/1/1 114/1/1
f 116/1/1 114/1/1 108/1/1
f 117/1/1 114/1/1 116/1/1
f 120/1/1 119/1/1 118/1/1
f 121/1/1 119/1/1 120/1/1
f 122/1/1 119/1/1 121/1/1
f 123/1/1 119/1/1 122/1/1
f 126/1/1 125/1/1 124/1/1
f 127/1/1 125/1/1 126/1/1
f 130/1/1 129/1/1 128/1/1
f 131/1/1 129/1/1 130/1/1
f 134/1/1 133/1/1 132/1/1
f 135/1/1 133/1/1 134/1/1
f 138/1/1 137/1/1 136/1/1
f 139/1/1 137/1/1 138/1/1
f 142/1/1 141/1/1 140/1/1
f 143/1/1 141/1/1 142/1/1
f 144/1/1 142/1/1 140/1/1
f 145/1/1 142/1/1 144/1/1
f 148/1/1 147/1/1 146/1/1
f 149/1/1 147/1/1 148/1/1
f 152/1/1 151/1/1 150/1/1
f 153/1/1 151/1/1 152/1/1
f 154/1/2 155/1/2 156/1/2
f 156/1/2 155/1/2 157/1/2
f 158/1/2 159/1/2 160/1/2
f 160/1/2 159/1/2 161/1/2
f 162/1/2 163/1/2 165/1/2
f 165/1/2 163/1/2 166/1/2
f 166/1/2 163/1/2 167/1/2
f 164/1/2 165/1/2 168/1/2
f 165/1/2 166/1/2 168/1/2
f 168/1/2 166/1/2 169/1/2
f 170/1/2 171/1/2 172/1/2
f 172/1/2 171/1/2 173/1/2
f 174/1/2 175/1/2 176/1/2
f 176/1/2 175/1/2 177/1/2
f 178/1/2 179/1/2 180/1/2
f 180/1/2 179/1/2 181/1/2
f 181/1/2 182/1/2 183/1/2
f 183/1/2 182/1/2 184/1/2
f 185/1/2 186/1/2 187/1/2
f 187/1/2 186/1/2 188/1/2
f 189/1/2 190/1/2 191/1/2
f 191/1/2 190/1/2 192/1/2
f 193/1/2 194/1/2 197/1/2
f 197/1/2 194/1/2 198/1/2
f 195/1/2 196/1/2 199/1/2
f 199/1/2 196/1/2 200/1/2
f 201/1/2 202/1/2 203/1/2
f 203/1/2 202/1/2 204/1/2
f 204/1/2 202/1/2 205/1/2
f 205/1/2 206/1/2 207/1/2
f 204/1/2 205/1/2 207/1/2
f 207/1/2 206/1/2 208/1/2
f 209/1/2 210/1/2 214/1/2
f 214/1/2 210/1/2 215/1/2
f 213/1/2 214/1/2 216/1/2
f 216/1/2 214/1/2 217/1/2
f 211/1/2 212/1/2 218/1/2
f 218/1/2 212/1/2 219/1/2
f 219/1/2 220/1/2 221/1/2
f 221/1/2 220/1/2 222/1/2
f 223/1/2 224/1/2 227/1/2
f 227/1/2 224/1/2 228/1/2
f 225/1/2 226/1/2 229/1/2
f 229/1/2 226/1/2 230/1/2
f 231/1/2 232/1/2 234/1/2
f 234/1/2 232/1/2 235/1/2
f 233/1/2 234/1/2 239/1/2
f 236/1/2 237/1/2 241/1/2
f 241/1/2 237/1/2 242/1/2
f 238/1/2 239/1/2 243/1/2
f 239/1/2 234/1/2 244/1/2
f 243/1/2 239/1/2 244/1/2
f 244/1/2 234/1/2 245/1/2
f 240/1/2 241/1/2 247/1/2
f 247/1/2 241/1/2 248/1/2
f 245/1/2 246/1/2 250/1/2
f 244/1/2 245/1/2 250/1/2
f 250/1/2 246/1/2 251/1/2
f 249/1/2 250/1/2 251/1/2
f 251/1/2 246/1/2 252/1/2
f 252/1/2 246/1/2 253/1/2
f 249/1/2 251/1/2 255/1/2
f 255/1/2 251/1/2 256/1/2
f 253/1/2 254/1/2 257/1/2
f 252/1/2 253/1/2 257/1/2
f 257/1/2 254/1/2 258/1/2
f 249/1/2 255/1/2 260/1/2
f 260/1/2 255/1/2 261/1/2
f 259/1/2 260/1/2 262/1/2
f 262/1/2 260/1/2 263/1/2
f 258/1/2 254/1/2 265/1/2
f 264/1/2 265/1/2 266/1/2
f 265/1/2 254/1/2 266/1/2
f 266/1/2 254/1/2 267/1/2
f 264/1/2 266/1/2 268/1/2
f 268/1/2 266/1/2 269/1/2
f 270/1/2 271/1/2 275/1/2
f 275/1/2 271/1/2 276/1/2
f 276/1/2 271/1/2 277/1/2
f 272/1/2 273/1/2 278/1/2
f 278/1/2 273/1/2 279/1/2
f 274/1/2 275/1/2 280/1/2
f 275/1/2 276/1/2 280/1/2
f 280/1/2 276/1/2 281/1/2
f 272/1/2 278/1/2 283/1/2
f 283/1/2 278/1/2 284/1/2
f 282/1/2 283/1/2 285/1/2
f 285/1/2 283/1/2 286/1/2
f 287/1/2 288/1/2 290/1/2
f 290/1/2 288/1/2 291/1/2
f 289/1/2 290/1/2 294/1/2
f 291/1/2 292/1/2 294/1/2
f 290/1/2 291/1/2 294/1/2
f 293/1/2 294/1/2 295/1/2
f 294/1/2 292/1/2 296/1/2
f 295/1/2 294/1/2 296/1/2
f 297/1/2 298/1/2 301/1/2
f 301/1/2 298/1/2 302/1/2
f 299/1/2 300/1/2 303/1/2
f 303/1/2 300/1/2 304/1/2
f 305/1/2 306/1/2 309/1/2
f 309/1/2 306/1/2 310/1/2
f 307/1/2 308/1/2 311/1/2
f 311/1/2 308/1/2 312/1/2
f 313/1/2 314/1/2 315/1/2
f 315/1/2 314/1/2 316/1/2
f 317/1/2 318/1/2 319/1/2
f 319/1/2 318/1/2 320/1/2
f 321/1/2 322/1/2 323/1/2
f 323/1/2 322/1/2 324/1/2
f 325/1/2 326/1/2 327/1/2
f 327/1/2 326/1/2 328/1/2
f 329/1/2 330/1/2 331/1/2
f 331/1/2 330/1/2 332/1/2
f 335/1/3 334/1/3 333/1/3
f 336/1/3 334/1/3 335/1/3
f 339/1/3 338/1/3 337/1/3
f 340/1/3 338/1/3 339/1/3
f 344/1/3 342/1/3 341/1/3
f 345/1/3 342/1/3 344/1/3
f 346/1/3 344/1/3 343/1/3
f 347/1/3 344/1/3 346/1/3
f 350/1/3 349/1/3 348/1/3
f 351/1/3 349/1/3 350/1/3
f 354/1/3 353/1/3 352/1/3
f 355/1/3 353/1/3 354/1/3
f 358/1/3 357/1/3 356/1/3
f 359/1/3 357/1/3 358/1/3
f 362/1/3 361/1/3 360/1/3
f 363/1/3 361/1/3 362/1/3
f 366/1/3 365/1/3 364/1/3
f 367/1/3 365/1/3 366/1/3
f 370/1/3 369/1/3 368/1/3
f 371/1/3 369/1/3 370/1/3
f 376/1/3 373/1/3 372/1/3
f 377/1/3 373/1/3 376/1/3
f 380/1/3 379/1/3 378/1/3
f 384/1/3 383/1/3 382/1/3
f 385/1/3 383/1/3 384/1/3
f 386/1/3 380/1/3 378/1/3
f 386/1/3 381/1/3 380/1/3
f 387/1/3 381/1/3 386/1/3
f 390/1/3 386/1/3 378/1/3
f 391/1/3 386/1/3 390/1/3
f 392/1/3 375/1/3 374/1/3
f 393/1/3 375/1/3 392/1/3
f 394/1/3 389/1/3 388/1/3
f 395/1/3 389/1/3 394/1/3
f 398/1/3 397/1/3 396/1/3
f 399/1/3 397/1/3 398/1/3
f 404/1/3 401/1/3 400/1/3
f 405/1/3 403/1/3 402/1/3
f 406/1/3 403/1/3 405/1/3
f 409/1/3 404/1/3 400/1/3
f 409/1/3 405/1/3 404/1/3
f 410/1/3 405/1/3 409/1/3
f 411/1/3 403/1/3 406/1/3
f 412/1/3 403/1/3 411/1/3
f 414/1/3 405/1/3 410/1/3
f 416/1/3 403/1/3 412/1/3
f 417/1/3 414/1/3 413/1/3
f 417/1/3 405/1/3 414/1/3
f 418/1/3 405/1/3 417/1/3
f 419/1/3 416/1/3 415/1/3
f 420/1/3 408/1/3 407/1/3
f 421/1/3 408/1/3 420/1/3
f 422/1/3 417/1/3 413/1/3
f 423/1/3 417/1/3 422/1/3
f 424/1/3 419/1/3 418/1/3
f 425/1/3 403/1/3 416/1/3
f 425/1/3 419/1/3 424/1/3
f 425/1/3 416/1/3 419/1/3
f 427/1/3 426/1/3 425/1/3
f 428/1/3 426/1/3 427/1/3
f 435/1/3 430/1/3 429/1/3
f 436/1/3 430/1/3 435/1/3
f 437/1/3 432/1/3 431/1/3
f 438/1/3 432/1/3 437/1/3
f 440/1/3 434/1/3 433/1/3
f 441/1/3 434/1/3 440/1/3
f 442/1/3 439/1/3 438/1/3
f 443/1/3 439/1/3 442/1/3
f 444/1/3 439/1/3 443/1/3
f 445/1/3 439/1/3 444/1/3
f 448/1/3 447/1/3 446/1/3
f 449/1/3 447/1/3 448/1/3
f 452/1/3 451/1/3 450/1/3
f 453/1/3 451/1/3 452/1/3
f 456/1/3 455/1/3 454/1/3
f 457/1/3 455/1/3 456/1/3
f 461/1/3 459/1/3 458/1/3
f 464/1/3 461/1/3 460/1/3
f 465/1/3 459/1/3 461/1/3
f 465/1/3 461/1/3 464/1/3
f 468/1/3 463/1/3 462/1/3
f 469/1/3 463/1/3 468/1/3
f 470/1/3 467/1/3 466/1/3
f 471/1/3 467/1/3 470/1/3
f 474/1/3 473/1/3 472/1/3
f 475/1/3 473/1/3 474/1/3
f 478/1/3 477/1/3 476/1/3
f 479/1/3 477/1/3 478/1/3
f 482/1/3 481/1/3 480/1/3
f 483/1/3 481/1/3 482/1/3
f 486/1/3 485/1/3 484/1/3
f 488/1/3 486/1/3 484/1/3
f 488/1/3 487/1/3 486/1/3
f 489/1/3 487/1/3 488/1/3
f 492/1/3 491/1/3 490/1/3
f 493/1/3 491/1/3 492/1/3
f 495/1/3 492/1/3 490/1/3
f 496/1/3 492/1/3 495/1/3
f 496/1/3 495/1/3 494/1/3
f 497/1/3 492/1/3 496/1/3
f 498/1/3 496/1/3 494/1/3
f 499/1/3 496/1/3 498/1/3
f 502/1/3 501/1/3 500/1/3
f 503/1/3 501/1/3 502/1/3
f 506/1/3 505/1/3 504/1/3
f 507/1/3 505/1/3 506/1/3
f 510/1/3 509/1/3 508/1/3
f 511/1/3 509/1/3 510/1/3
f 514/1/3 513/1/3 512/1/3
f 515/1/3 513/1/3 514/1/3
f 518/1/3 517/1/3 516/1/3
f 519/1/3 517/1/3 518/1/3
f 520/1/4 521/1/4 522/1/4
f 522/1/4 521/1/4 523/1/4
f 524/1/4 525/1/4 526/1/4
f 526/1/4 525/1/4 527/1/4
f 528/1/4 529/1/4 530/1/4
f 530/1/4 529/1/4 531/1/4
f 532/1/4 533/1/4 534/1/4
f 534/1/4 533/1/4 535/1/4
f 536/1/4 537/1/4 538/1/4
f 538/1/4 537/1/4 539/1/4
f 540/1/4 541/1/4 542/1/4
f 542/1/4 541/1/4 543/1/4
f 544/1/4 545/1/4 546/1/4
f 546/1/4 545/1/4 547/1/4
f 548/1/4 549/1/4 552/1/4
f 552/1/4 549/1/4 553/1/4
f 550/1/4 551/1/4 554/1/4
f 554/1/4 551/1/4 555/1/4
f 556/1/4 557/1/4 560/1/4
f 560/1/4 557/1/4 561/1/4
f 558/1/4 559/1/4 562/1/4
f 562/1/4 559/1/4 563/1/4
f 561/1/4 562/1/4 565/1/4
f 565/1/4 562/1/4 566/1/4
f 563/1/4 564/1/4 567/1/4
f 567/1/4 564/1/4 568/1/4
f 569/1/4 570/1/4 573/1/4
f 573/1/4 570/1/4 574/1/4
f 571/1/4 572/1/4 577/1/4
f 577/1/4 572/1/4 578/1/4
f 575/1/4 576/1/4 579/1/4
f 579/1/4 576/1/4 580/1/4
f 581/1/4 582/1/4 583/1/4
f 583/1/4 582/1/4 584/1/4
f 585/1/4 586/1/4 590/1/4
f 586/1/4 587/1/4 590/1/4
f 588/1/4 589/1/4 591/1/4
f 592/1/4 593/1/4 595/1/4
f 585/1/4 590/1/4 596/1/4
f 590/1/4 591/1/4 596/1/4
f 596/1/4 591/1/4 597/1/4
f 594/1/4 595/1/4 599/1/4
f 597/1/4 591/1/4 600/1/4
f 591/1/4 589/1/4 601/1/4
f 600/1/4 591/1/4 601/1/4
f 598/1/4 599/1/4 602/1/4
f 602/1/4 599/1/4 603/1/4
f 595/1/4 593/1/4 604/1/4
f 603/1/4 599/1/4 604/1/4
f 599/1/4 595/1/4 604/1/4
f 602/1/4 603/1/4 607/1/4
f 601/1/4 602/1/4 607/1/4
f 607/1/4 603/1/4 608/1/4
f 605/1/4 606/1/4 610/1/4
f 610/1/4 606/1/4 611/1/4
f 609/1/4 610/1/4 612/1/4
f 612/1/4 610/1/4 613/1/4
f 609/1/4 612/1/4 614/1/4
f 614/1/4 612/1/4 615/1/4
f 616/1/4 617/1/4 618/1/4
f 618/1/4 617/1/4 619/1/4
f 622/1/4 623/1/4 624/1/4
f 624/1/4 625/1/4 626/1/4
f 626/1/4 625/1/4 627/1/4
f 620/1/4 621/1/4 628/1/4
f 622/1/4 624/1/4 630/1/4
f 624/1/4 626/1/4 630/1/4
f 630/1/4 626/1/4 631/1/4
f 628/1/4 629/1/4 632/1/4
f 620/1/4 628/1/4 632/1/4
f 632/1/4 629/1/4 633/1/4
f 622/1/4 630/1/4 634/1/4
f 634/1/4 630/1/4 635/1/4
f 633/1/4 629/1/4 637/1/4
f 637/1/4 629/1/4 638/1/4
f 636/1/4 637/1/4 639/1/4
f 639/1/4 637/1/4 640/1/4
f 641/1/4 642/1/4 643/1/4
f 643/1/4 642/1/4 644/1/4
f 645/1/4 646/1/4 647/1/4
f 647/1/4 646/1/4 648/1/4
f 649/1/4 650/1/4 651/1/4
f 651/1/4 650/1/4 652/1/4
f 653/1/4 654/1/4 655/1/4
f 655/1/4 654/1/4 656/1/4
f 657/1/4 658/1/4 659/1/4
f 659/1/4 658/1/4 660/1/4
f 661/1/4 662/1/4 663/1/4
f 663/1/4 662/1/4 664/1/4
f 668/1/5 666/1/5 665/1/5
f 669/1/5 666/1/5 668/1/5
f 669/1/5 668/1/5 667/1/5
f 672/1/5 669/1/5 667/1/5
f 672/1/5 670/1/5 669/1/5
f 676/1/5 672/1/5 671/1/5
f 677/1/5 670/1/5 672/1/5
f 677/1/5 672/1/5 676/1/5
f 678/1/5 674/1/5 673/1/5
f 679/1/5 676/1/5 675/1/5
f 679/1/5 678/1/5 677/1/5
f 679/1/5 674/1/5 678/1/5
f 679/1/5 677/1/5 676/1/5
f 680/1/5 674/1/5 679/1/5
f 682/1/5 679/1/5 675/1/5
f 683/1/5 679/1/5 682/1/5
f 684/1/5 679/1/5 683/1/5
f 685/1/5 682/1/5 681/1/5
f 685/1/5 683/1/5 682/1/5
f 686/1/5 683/1/5 685/1/5
f 687/1/5 683/1/5 686/1/5
f 688/1/5 683/1/5 687/1/5
f 689/1/5 683/1/5 688/1/5
f 691/1/5 690/1/5 689/1/5
f 691/1/5 689/1/5 688/1/5
f 694/1/5 691/1/5 688/1/5
f 694/1/5 692/1/5 691/1/5
f 695/1/5 692/1/5 694/1/5
f 696/1/5 692/1/5 695/1/5
f 697/1/5 692/1/5 696/1/5
f 699/1/5 697/1/5 696/1/5
f 699/1/5 698/1/5 697/1/5
f 701/1/5 695/1/5 694/1/5
f 701/1/5 694/1/5 693/1/5
f 702/1/5 700/1/5 699/1/5
f 702/1/5 699/1/5 696/1/5
f 703/1/5 700/1/5 702/1/5
f 704/1/5 701/1/5 693/1/5
f 704/1/5 702/1/5 701/1/5
f 705/1/5 702/1/5 704/1/5
f 707/1/5 704/1/5 693/1/5
f 708/1/5 702/1/5 705/1/5
f 711/1/5 707/1/5 706/1/5
f 712/1/5 704/1/5 707/1/5
f 712/1/5 707/1/5 711/1/5
f 713/1/5 704/1/5 712/1/5
f 714/1/5 709/1/5 708/1/5
f 714/1/5 708/1/5 705/1/5
f 715/1/5 709/1/5 714/1/5
f 716/1/5 711/1/5 710/1/5
f 716/1/5 712/1/5 711/1/5
f 717/1/5 712/1/5 716/1/5
f 718/1/5 716/1/5 710/1/5
f 719/1/5 716/1/5 718/1/5
f 722/1/5 721/1/5 720/1/5
f 723/1/5 721/1/5 722/1/5
f 727/1/5 725/1/5 724/1/5
f 728/1/5 725/1/5 727/1/5
f 730/1/5 727/1/5 726/1/5
f 731/1/5 727/1/5 730/1/5
f 732/1/5 729/1/5 728/1/5
f 733/1/5 729/1/5 732/1/5
f 736/1/5 735/1/5 734/1/5
f 737/1/5 735/1/5 736/1/5
f 739/1/5 738/1/5 737/1/5
f 740/1/5 738/1/5 739/1/5
f 743/1/5 742/1/5 741/1/5
f 744/1/5 742/1/5 743/1/5
f 748/1/5 746/1/5 745/1/5
f 749/1/5 746/1/5 748/1/5
f 750/1/5 748/1/5 747/1/5
f 751/1/5 748/1/5 750/1/5
f 754/1/5 753/1/5 752/1/5
f 755/1/5 753/1/5 754/1/5
f 758/1/5 757/1/5 756/1/5
f 759/1/5 757/1/5 758/1/5
f 762/1/5 761/1/5 760/1/5
f 763/1/5 761/1/5 762/1/5
f 767/1/5 764/1/5 763/1/5
f 768/1/5 764/1/5 767/1/5
f 769/1/5 766/1/5 765/1/5
f 770/1/5 766/1/5 769/1/5
f 771/1/6 772/1/6 774/1/6
f 773/1/6 774/1/6 775/1/6
f 774/1/6 772/1/6 776/1/6
f 775/1/6 774/1/6 776/1/6
f 776/1/6 777/1/6 778/1/6
f 778/1/6 777/1/6 779/1/6
f 780/1/6 781/1/6 785/1/6
f 782/1/6 783/1/6 786/1/6
f 786/1/6 783/1/6 787/1/6
f 784/1/6 785/1/6 788/1/6
f 788/1/6 785/1/6 789/1/6
f 785/1/6 781/1/6 790/1/6
f 789/1/6 785/1/6 790/1/6
f 790/1/6 781/1/6 791/1/6
f 789/1/6 790/1/6 794/1/6
f 794/1/6 790/1/6 795/1/6
f 792/1/6 793/1/6 796/1/6
f 796/1/6 793/1/6 797/1/6
f 797/1/6 793/1/6 798/1/6
f 797/1/6 798/1/6 802/1/6
f 798/1/6 799/1/6 802/1/6
f 802/1/6 799/1/6 803/1/6
f 800/1/6 801/1/6 804/1/6
f 803/1/6 799/1/6 806/1/6
f 806/1/6 799/1/6 807/1/6
f 804/1/6 805/1/6 808/1/6
f 800/1/6 804/1/6 812/1/6
f 804/1/6 808/1/6 812/1/6
f 808/1/6 809/1/6 812/1/6
f 812/1/6 809/1/6 813/1/6
f 814/1/6 815/1/6 817/1/6
f 817/1/6 815/1/6 818/1/6
f 816/1/6 817/1/6 822/1/6
f 817/1/6 818/1/6 822/1/6
f 818/1/6 819/1/6 822/1/6
f 822/1/6 819/1/6 823/1/6
f 810/1/6 811/1/6 824/1/6
f 820/1/6 821/1/6 826/1/6
f 826/1/6 821/1/6 827/1/6
f 824/1/6 825/1/6 831/1/6
f 810/1/6 824/1/6 831/1/6
f 831/1/6 825/1/6 832/1/6
f 828/1/6 829/1/6 835/1/6
f 835/1/6 829/1/6 836/1/6
f 832/1/6 833/1/6 839/1/6
f 830/1/6 831/1/6 839/1/6
f 831/1/6 832/1/6 839/1/6
f 839/1/6 833/1/6 840/1/6
f 840/1/6 833/1/6 841/1/6
f 836/1/6 837/1/6 842/1/6
f 835/1/6 836/1/6 842/1/6
f 834/1/6 835/1/6 842/1/6
f 842/1/6 837/1/6 843/1/6
f 839/1/6 840/1/6 844/1/6
f 838/1/6 839/1/6 844/1/6
f 844/1/6 840/1/6 845/1/6
f 838/1/6 844/1/6 846/1/6
f 846/1/6 844/1/6 847/1/6
f 848/1/6 849/1/6 851/1/6
f 851/1/6 849/1/6 852/1/6
f 850/1/6 851/1/6 854/1/6
f 852/1/6 853/1/6 854/1/6
f 851/1/6 852/1/6 854/1/6
f 854/1/6 853/1/6 855/1/6
f 850/1/6 854/1/6 857/1/6
f 855/1/6 853/1/6 858/1/6
f 858/1/6 853/1/6 859/1/6
f 859/1/6 853/1/6 860/1/6
f 856/1/6 857/1/6 862/1/6
f 857/1/6 854/1/6 863/1/6
f 862/1/6 857/1/6 863/1/6
f 860/1/6 861/1/6 864/1/6
f 859/1/6 860/1/6 864/1/6
f 864/1/6 861/1/6 865/1/6
f 856/1/6 862/1/6 866/1/6
f 866/1/6 862/1/6 867/1/6
f 865/1/6 861/1/6 868/1/6
f 868/1/6 861/1/6 869/1/6
f 870/1/6 871/1/6 872/1/6
f 872/1/6 871/1/6 873/1/6
f 874/1/6 875/1/6 878/1/6
f 876/1/6 877/1/6 880/1/6
f 880/1/6 877/1/6 881/1/6
f 878/1/6 879/1/6 882/1/6
f 876/1/6 880/1/6 884/1/6
f 884/1/6 880/1/6 885/1/6
f 874/1/6 878/1/6 886/1/6
f 878/1/6 882/1/6 886/1/6
f 886/1/6 882/1/6 887/1/6
f 883/1/6 884/1/6 889/1/6
f 889/1/6 884/1/6 890/1/6
f 887/1/6 882/1/6 891/1/6
f 891/1/6 882/1/6 892/1/6
f 888/1/6 889/1/6 893/1/6
f 893/1/6 889/1/6 894/1/6
f 895/1/6 896/1/6 897/1/6
f 895/1/6 897/1/6 901/1/6
f 897/1/6 898/1/6 901/1/6
f 901/1/6 898/1/6 902/1/6
f 899/1/6 900/1/6 905/1/6
f 905/1/6 900/1/6 906/1/6
f 903/1/6 904/1/6 907/1/6
f 907/1/6 904/1/6 908/1/6
f 909/1/6 910/1/6 913/1/6
f 913/1/6 910/1/6 914/1/6
f 911/1/6 912/1/6 917/1/6
f 914/1/6 915/1/6 918/1/6
f 918/1/6 915/1/6 919/1/6
f 916/1/6 917/1/6 921/1/6
f 917/1/6 912/1/6 922/1/6
f 921/1/6 917/1/6 922/1/6
f 922/1/6 912/1/6 923/1/6
f 920/1/6 921/1/6 924/1/6
f 921/1/6 922/1/6 924/1/6
f 924/1/6 922/1/6 925/1/6
f 926/1/6 927/1/6 930/1/6
f 930/1/6 927/1/6 931/1/6
f 928/1/6 929/1/6 932/1/6
f 932/1/6 929/1/6 933/1/6
f 934/1/6 935/1/6 936/1/6
f 936/1/6 935/1/6 937/1/6
f 938/1/6 939/1/6 940/1/6
f 940/1/6 939/1/6 941/1/6
f 942/1/6 943/1/6 944/1/6
f 944/1/6 943/1/6 945/1/6
f 945/1/6 946/1/6 949/1/6
f 949/1/6 946/1/6 950/1/6
f 947/1/6 948/1/6 951/1/6
f 951/1/6 948/1/6 952/1/6
f 953/1/6 954/1/6 955/1/6
f 955/1/6 954/1/6 956/1/6
f 956/1/6 954/1/6 957/1/6
f 953/1/6 955/1/6 960/1/6
f 960/1/6 955/1/6 961/1/6
f 956/1/6 957/1/6 962/1/6
f 957/1/6 958/1/6 962/1/6
f 962/1/6 958/1/6 963/1/6
f 959/1/6 960/1/6 964/1/6
f 964/1/6 960/1/6 965/1/6
f 963/1/6 958/1/6 966/1/6
f 966/1/6 958/1/6 967/1/6
f 968/1/6 969/1/6 970/1/6
f 970/1/6 969/1/6 971/1/6
f 972/1/6 973/1/6 974/1/6
f 974/1/6 973/1/6 975/1/6
f 975/1/6 973/1/6 976/1/6
f 976/1/6 973/1/6 977/1/6
f 978/1/6 979/1/6 980/1/6
f 980/1/6 979/1/6 981/1/6
f 982/1/6 983/1/6 984/1/6
f 984/1/6 983/1/6 985/1/6
f 986/1/6 987/1/6 988/1/6
f 986/1/6 988/1/6 990/1/6
f 988/1/6 989/1/6 990/1/6
f 990/1/6 989/1/6 991/1/6
f 991/1/6 989/1/6 992/1/6
f 992/1/6 989/1/6 993/1/6
f 991/1/6 992/1/6 994/1/6
f 994/1/6 992/1/6 995/1/6
