# MagicaVoxel @ Ephtracy

# group
g Slug_antenna_L

# material
mtllib Slug_antenna_L.mtl
usemtl palette

# normals
vn -1 0 0
vn 1 0 0
vn 0 0 1
vn 0 0 -1
vn 0 -1 0
vn 0 1 0

# texcoords
vt 0.00195313 0.5

# verts
v -1.5 0 -0.5
v -1.5 0 -1.5
v -1.5 1 1.5
v -1.5 1 -0.5
v -1.5 1 -1.5
v -1.5 2 0.5
v -1.5 2 -0.5
v -1.5 3 1.5
v -1.5 3 0.5
v -0.5 0 -0.5
v -0.5 0 -1.5
v -0.5 1 -0.5
v -0.5 1 -1.5
v 0.5 1 0.5
v 0.5 1 -0.5
v 0.5 2 0.5
v 0.5 2 -0.5
v 1.5 1 1.5
v 1.5 1 0.5
v 1.5 3 1.5
v 1.5 3 0.5
v -1.5 1 1.5
v -1.5 3 1.5
v 1.5 1 1.5
v 1.5 3 1.5
v -1.5 0 -0.5
v -1.5 1 -0.5
v -0.5 0 -0.5
v -0.5 1 -0.5
v -1.5 2 0.5
v -1.5 3 0.5
v 0.5 1 0.5
v 0.5 2 0.5
v 1.5 1 0.5
v 1.5 3 0.5
v -1.5 1 -0.5
v -1.5 2 -0.5
v -0.5 1 -0.5
v 0.5 1 -0.5
v 0.5 2 -0.5
v -1.5 0 -1.5
v -1.5 1 -1.5
v -0.5 0 -1.5
v -0.5 1 -1.5
v -1.5 0 -0.5
v -0.5 0 -0.5
v -1.5 0 -1.5
v -0.5 0 -1.5
v -1.5 1 1.5
v 1.5 1 1.5
v 0.5 1 0.5
v 1.5 1 0.5
v -1.5 1 -0.5
v -0.5 1 -0.5
v 0.5 1 -0.5
v -1.5 1 -0.5
v -0.5 1 -0.5
v -1.5 1 -1.5
v -0.5 1 -1.5
v -1.5 2 0.5
v 0.5 2 0.5
v -1.5 2 -0.5
v 0.5 2 -0.5
v -1.5 3 1.5
v 1.5 3 1.5
v -1.5 3 0.5
v 1.5 3 0.5

# faces
f 4/1/1 2/1/1 1/1/1
f 5/1/1 2/1/1 4/1/1
f 6/1/1 4/1/1 3/1/1
f 7/1/1 4/1/1 6/1/1
f 8/1/1 6/1/1 3/1/1
f 9/1/1 6/1/1 8/1/1
f 10/1/2 11/1/2 12/1/2
f 12/1/2 11/1/2 13/1/2
f 14/1/2 15/1/2 16/1/2
f 16/1/2 15/1/2 17/1/2
f 18/1/2 19/1/2 20/1/2
f 20/1/2 19/1/2 21/1/2
f 24/1/3 23/1/3 22/1/3
f 25/1/3 23/1/3 24/1/3
f 28/1/3 27/1/3 26/1/3
f 29/1/3 27/1/3 28/1/3
f 30/1/4 31/1/4 33/1/4
f 32/1/4 33/1/4 34/1/4
f 33/1/4 31/1/4 35/1/4
f 34/1/4 33/1/4 35/1/4
f 36/1/4 37/1/4 38/1/4
f 38/1/4 37/1/4 39/1/4
f 39/1/4 37/1/4 40/1/4
f 41/1/4 42/1/4 43/1/4
f 43/1/4 42/1/4 44/1/4
f 47/1/5 46/1/5 45/1/5
f 48/1/5 46/1/5 47/1/5
f 51/1/5 50/1/5 49/1/5
f 52/1/5 50/1/5 51/1/5
f 53/1/5 51/1/5 49/1/5
f 54/1/5 51/1/5 53/1/5
f 55/1/5 51/1/5 54/1/5
f 56/1/6 57/1/6 58/1/6
f 58/1/6 57/1/6 59/1/6
f 60/1/6 61/1/6 62/1/6
f 62/1/6 61/1/6 63/1/6
f 64/1/6 65/1/6 66/1/6
f 66/1/6 65/1/6 67/1/6
