# MagicaVoxel @ Ephtracy

# group
g FernLeaf2

# material
mtllib FernLeaf2.mtl
usemtl palette

# normals
vn -1 0 0
vn 1 0 0
vn 0 0 1
vn 0 0 -1
vn 0 -1 0
vn 0 1 0

# texcoords
vt 0.00195313 0.5

# verts
v -8.5 0 8.5
v -8.5 0 6.5
v -8.5 0 5.5
v -8.5 0 4.5
v -8.5 1 8.5
v -8.5 1 6.5
v -8.5 1 5.5
v -8.5 1 4.5
v -7.5 1 3.5
v -7.5 1 2.5
v -7.5 2 3.5
v -7.5 2 2.5
v -6.5 0 6.5
v -6.5 0 5.5
v -6.5 1 6.5
v -6.5 1 5.5
v -6.5 1 4.5
v -6.5 2 5.5
v -6.5 2 4.5
v -6.5 2 1.5
v -6.5 2 0.5
v -6.5 3 1.5
v -6.5 3 0.5
v -5.5 0 8.5
v -5.5 0 6.5
v -5.5 1 8.5
v -5.5 1 6.5
v -5.5 1 5.5
v -5.5 2 6.5
v -5.5 2 5.5
v -5.5 2 3.5
v -5.5 2 2.5
v -5.5 3 3.5
v -5.5 3 2.5
v -5.5 3 -0.5
v -5.5 3 -1.5
v -5.5 4 -0.5
v -5.5 4 -1.5
v -4.5 2 4.5
v -4.5 2 3.5
v -4.5 3 4.5
v -4.5 3 3.5
v -4.5 3 1.5
v -4.5 3 0.5
v -4.5 4 1.5
v -4.5 4 0.5
v -4.5 4 -2.5
v -4.5 4 -3.5
v -4.5 5 -2.5
v -4.5 5 -3.5
v -3.5 1 7.5
v -3.5 1 5.5
v -3.5 2 7.5
v -3.5 2 5.5
v -3.5 2 4.5
v -3.5 3 5.5
v -3.5 3 4.5
v -3.5 4 -0.5
v -3.5 4 -1.5
v -3.5 4 -4.5
v -3.5 4 -5.5
v -3.5 5 -0.5
v -3.5 5 -1.5
v -3.5 5 -2.5
v -3.5 5 -3.5
v -3.5 5 -4.5
v -3.5 5 -5.5
v -3.5 6 -2.5
v -3.5 6 -3.5
v -2.5 3 2.5
v -2.5 3 1.5
v -2.5 4 2.5
v -2.5 4 1.5
v -2.5 4 -6.5
v -2.5 4 -7.5
v -2.5 5 -4.5
v -2.5 5 -5.5
v -2.5 5 -6.5
v -2.5 5 -7.5
v -2.5 6 -4.5
v -2.5 6 -5.5
v -1.5 2 6.5
v -1.5 2 4.5
v -1.5 3 6.5
v -1.5 3 4.5
v -1.5 3 2.5
v -1.5 4 4.5
v -1.5 4 2.5
v -1.5 4 1.5
v -1.5 4 0.5
v -1.5 5 1.5
v -1.5 5 0.5
v -1.5 5 -0.5
v -1.5 5 -1.5
v -1.5 6 -0.5
v -1.5 6 -1.5
v -0.5 5 0.5
v -0.5 5 -0.5
v -0.5 6 0.5
v -0.5 6 -0.5
v 0.5 3 5.5
v 0.5 3 3.5
v 0.5 4 5.5
v 0.5 4 3.5
v 0.5 4 1.5
v 0.5 5 3.5
v 0.5 5 1.5
v 0.5 5 0.5
v 0.5 6 1.5
v 0.5 6 0.5
v 1.5 5 -1.5
v 1.5 5 -2.5
v 1.5 6 -1.5
v 1.5 6 -2.5
v 1.5 6 -3.5
v 1.5 7 -2.5
v 1.5 7 -3.5
v 2.5 4 4.5
v 2.5 4 3.5
v 2.5 5 4.5
v 2.5 5 3.5
v 2.5 5 -1.5
v 2.5 5 -3.5
v 2.5 5 -4.5
v 2.5 6 3.5
v 2.5 6 -1.5
v 2.5 6 -2.5
v 2.5 6 -3.5
v 2.5 6 -4.5
v 2.5 7 -1.5
v 2.5 7 -2.5
v 3.5 5 -2.5
v 3.5 5 -3.5
v 3.5 5 -4.5
v 3.5 5 -5.5
v 3.5 6 -2.5
v 3.5 6 -3.5
v 3.5 6 -4.5
v 3.5 6 -5.5
v 4.5 4 3.5
v 4.5 4 2.5
v 4.5 4 -5.5
v 4.5 4 -6.5
v 4.5 5 3.5
v 4.5 5 2.5
v 4.5 5 -2.5
v 4.5 5 -3.5
v 4.5 5 -4.5
v 4.5 5 -5.5
v 4.5 5 -6.5
v 4.5 6 2.5
v 4.5 6 -2.5
v 4.5 6 -3.5
v 4.5 6 -4.5
v 5.5 3 -6.5
v 5.5 3 -7.5
v 5.5 4 -4.5
v 5.5 4 -5.5
v 5.5 4 -6.5
v 5.5 4 -7.5
v 5.5 5 -4.5
v 5.5 5 -5.5
v 6.5 3 -5.5
v 6.5 3 -6.5
v 6.5 3 -7.5
v 6.5 3 -8.5
v 6.5 4 2.5
v 6.5 4 -4.5
v 6.5 4 -5.5
v 6.5 4 -6.5
v 6.5 4 -7.5
v 6.5 4 -8.5
v 6.5 5 2.5
v 6.5 5 -4.5
v 7.5 3 -6.5
v 7.5 3 -7.5
v 7.5 4 -6.5
v 7.5 4 -7.5
v -6.5 0 8.5
v -6.5 0 6.5
v -6.5 0 5.5
v -6.5 0 4.5
v -6.5 1 8.5
v -6.5 1 6.5
v -6.5 1 5.5
v -6.5 1 4.5
v -5.5 0 6.5
v -5.5 0 5.5
v -5.5 1 6.5
v -5.5 1 5.5
v -5.5 1 3.5
v -5.5 1 2.5
v -5.5 2 3.5
v -5.5 2 2.5
v -4.5 0 8.5
v -4.5 0 6.5
v -4.5 1 8.5
v -4.5 1 6.5
v -4.5 1 4.5
v -4.5 2 6.5
v -4.5 2 4.5
v -4.5 2 1.5
v -4.5 2 0.5
v -4.5 3 1.5
v -4.5 3 0.5
v -3.5 3 -0.5
v -3.5 3 -1.5
v -3.5 4 -0.5
v -3.5 4 -1.5
v -3.5 4 -2.5
v -3.5 4 -3.5
v -3.5 5 -2.5
v -3.5 5 -3.5
v -2.5 1 7.5
v -2.5 1 5.5
v -2.5 2 7.5
v -2.5 2 5.5
v -2.5 2 2.5
v -2.5 3 5.5
v -2.5 3 2.5
v -2.5 4 -4.5
v -2.5 4 -5.5
v -2.5 5 -4.5
v -2.5 5 -5.5
v -1.5 4 -0.5
v -1.5 4 -1.5
v -1.5 5 -0.5
v -1.5 5 -1.5
v -0.5 2 6.5
v -0.5 2 4.5
v -0.5 3 6.5
v -0.5 3 4.5
v -0.5 3 0.5
v -0.5 4 4.5
v -0.5 4 1.5
v -0.5 5 1.5
v -0.5 5 0.5
v 1.5 3 5.5
v 1.5 3 3.5
v 1.5 4 5.5
v 1.5 4 3.5
v 1.5 4 1.5
v 1.5 5 3.5
v 1.5 5 1.5
v 1.5 5 -1.5
v 1.5 5 -2.5
v 1.5 5 -3.5
v 1.5 6 1.5
v 1.5 6 -1.5
v 1.5 6 -2.5
v 1.5 6 -3.5
v 2.5 5 -1.5
v 2.5 5 -2.5
v 2.5 5 -4.5
v 2.5 5 -5.5
v 2.5 6 -1.5
v 2.5 6 -2.5
v 2.5 6 -4.5
v 2.5 6 -5.5
v 3.5 4 4.5
v 3.5 4 3.5
v 3.5 5 4.5
v 3.5 5 3.5
v 3.5 5 -1.5
v 3.5 5 -3.5
v 3.5 5 -4.5
v 3.5 6 3.5
v 3.5 6 -1.5
v 3.5 6 -2.5
v 3.5 6 -3.5
v 3.5 6 -4.5
v 3.5 7 -1.5
v 3.5 7 -3.5
v 4.5 4 -6.5
v 4.5 4 -7.5
v 4.5 5 -2.5
v 4.5 5 -3.5
v 4.5 5 -6.5
v 4.5 5 -7.5
v 4.5 6 -2.5
v 4.5 6 -3.5
v 5.5 4 3.5
v 5.5 4 2.5
v 5.5 5 3.5
v 5.5 5 2.5
v 5.5 5 -2.5
v 5.5 5 -3.5
v 5.5 5 -4.5
v 5.5 5 -5.5
v 5.5 6 2.5
v 5.5 6 -2.5
v 5.5 6 -3.5
v 5.5 6 -5.5
v 6.5 3 -6.5
v 6.5 3 -7.5
v 6.5 4 -4.5
v 6.5 4 -5.5
v 6.5 4 -6.5
v 6.5 4 -7.5
v 6.5 5 -4.5
v 6.5 5 -6.5
v 7.5 3 -5.5
v 7.5 3 -6.5
v 7.5 3 -7.5
v 7.5 3 -8.5
v 7.5 4 2.5
v 7.5 4 -4.5
v 7.5 4 -5.5
v 7.5 4 -6.5
v 7.5 4 -7.5
v 7.5 4 -8.5
v 7.5 5 2.5
v 7.5 5 -4.5
v 8.5 3 -6.5
v 8.5 3 -7.5
v 8.5 4 -6.5
v 8.5 4 -7.5
v -8.5 0 8.5
v -8.5 1 8.5
v -6.5 0 8.5
v -6.5 1 8.5
v -5.5 0 8.5
v -5.5 1 8.5
v -4.5 0 8.5
v -4.5 1 8.5
v -3.5 1 7.5
v -3.5 2 7.5
v -2.5 1 7.5
v -2.5 2 7.5
v -6.5 0 6.5
v -6.5 1 6.5
v -5.5 0 6.5
v -5.5 1 6.5
v -5.5 2 6.5
v -4.5 1 6.5
v -4.5 2 6.5
v -1.5 2 6.5
v -1.5 3 6.5
v -0.5 2 6.5
v -0.5 3 6.5
v -8.5 0 5.5
v -8.5 1 5.5
v -6.5 0 5.5
v -6.5 1 5.5
v -6.5 2 5.5
v -5.5 1 5.5
v -5.5 2 5.5
v -3.5 2 5.5
v -3.5 3 5.5
v -2.5 2 5.5
v -2.5 3 5.5
v 0.5 3 5.5
v 0.5 4 5.5
v 1.5 3 5.5
v 1.5 4 5.5
v -4.5 2 4.5
v -4.5 3 4.5
v -3.5 2 4.5
v -3.5 3 4.5
v -1.5 3 4.5
v -1.5 4 4.5
v -0.5 3 4.5
v -0.5 4 4.5
v 2.5 4 4.5
v 2.5 5 4.5
v 3.5 4 4.5
v 3.5 5 4.5
v -7.5 1 3.5
v -7.5 2 3.5
v -5.5 1 3.5
v -5.5 2 3.5
v -5.5 3 3.5
v -4.5 2 3.5
v -4.5 3 3.5
v 0.5 4 3.5
v 0.5 5 3.5
v 1.5 4 3.5
v 1.5 5 3.5
v 2.5 5 3.5
v 2.5 6 3.5
v 3.5 5 3.5
v 3.5 6 3.5
v 4.5 4 3.5
v 4.5 5 3.5
v 5.5 4 3.5
v 5.5 5 3.5
v -2.5 3 2.5
v -2.5 4 2.5
v -1.5 3 2.5
v -1.5 4 2.5
v 4.5 5 2.5
v 4.5 6 2.5
v 5.5 5 2.5
v 5.5 6 2.5
v 6.5 4 2.5
v 6.5 5 2.5
v 7.5 4 2.5
v 7.5 5 2.5
v -6.5 2 1.5
v -6.5 3 1.5
v -4.5 2 1.5
v -4.5 3 1.5
v -4.5 4 1.5
v -2.5 3 1.5
v -2.5 4 1.5
v -1.5 4 1.5
v -1.5 5 1.5
v -0.5 4 1.5
v -0.5 5 1.5
v 0.5 5 1.5
v 0.5 6 1.5
v 1.5 5 1.5
v 1.5 6 1.5
v -0.5 5 0.5
v -0.5 6 0.5
v 0.5 5 0.5
v 0.5 6 0.5
v -5.5 3 -0.5
v -5.5 4 -0.5
v -3.5 3 -0.5
v -3.5 4 -0.5
v -3.5 5 -0.5
v -1.5 4 -0.5
v -1.5 5 -0.5
v -1.5 6 -0.5
v -0.5 5 -0.5
v -0.5 6 -0.5
v 1.5 5 -1.5
v 1.5 6 -1.5
v 2.5 5 -1.5
v 2.5 6 -1.5
v 2.5 7 -1.5
v 3.5 6 -1.5
v 3.5 7 -1.5
v -4.5 4 -2.5
v -4.5 5 -2.5
v -3.5 4 -2.5
v -3.5 5 -2.5
v -3.5 6 -2.5
v 1.5 5 -2.5
v 1.5 6 -2.5
v 1.5 7 -2.5
v 2.5 6 -2.5
v 2.5 7 -2.5
v 3.5 5 -2.5
v 3.5 6 -2.5
v 4.5 5 -2.5
v 4.5 6 -2.5
v 2.5 5 -3.5
v 2.5 6 -3.5
v 3.5 5 -3.5
v 3.5 6 -3.5
v 4.5 5 -3.5
v 4.5 6 -3.5
v 5.5 5 -3.5
v 5.5 6 -3.5
v -3.5 4 -4.5
v -3.5 5 -4.5
v -2.5 4 -4.5
v -2.5 5 -4.5
v -2.5 6 -4.5
v 2.5 5 -4.5
v 2.5 6 -4.5
v 3.5 5 -4.5
v 3.5 6 -4.5
v 4.5 5 -4.5
v 4.5 6 -4.5
v 5.5 4 -4.5
v 5.5 5 -4.5
v 6.5 4 -4.5
v 6.5 5 -4.5
v 4.5 4 -5.5
v 4.5 5 -5.5
v 5.5 4 -5.5
v 5.5 5 -5.5
v 6.5 3 -5.5
v 6.5 4 -5.5
v 7.5 3 -5.5
v 7.5 4 -5.5
v -2.5 4 -6.5
v -2.5 5 -6.5
v 4.5 4 -6.5
v 4.5 5 -6.5
v 5.5 3 -6.5
v 5.5 4 -6.5
v 6.5 3 -6.5
v 6.5 4 -6.5
v 7.5 3 -6.5
v 7.5 4 -6.5
v 8.5 3 -6.5
v 8.5 4 -6.5
v 6.5 3 -7.5
v 6.5 4 -7.5
v 7.5 3 -7.5
v 7.5 4 -7.5
v -8.5 0 6.5
v -8.5 1 6.5
v -6.5 0 6.5
v -6.5 1 6.5
v -5.5 0 6.5
v -5.5 1 6.5
v -4.5 0 6.5
v -4.5 1 6.5
v -6.5 0 5.5
v -6.5 1 5.5
v -5.5 0 5.5
v -5.5 1 5.5
v -3.5 1 5.5
v -3.5 2 5.5
v -2.5 1 5.5
v -2.5 2 5.5
v -8.5 0 4.5
v -8.5 1 4.5
v -6.5 0 4.5
v -6.5 1 4.5
v -6.5 2 4.5
v -4.5 1 4.5
v -4.5 2 4.5
v -1.5 2 4.5
v -1.5 3 4.5
v -0.5 2 4.5
v -0.5 3 4.5
v 0.5 3 3.5
v 0.5 4 3.5
v 1.5 3 3.5
v 1.5 4 3.5
v 2.5 4 3.5
v 2.5 5 3.5
v 3.5 4 3.5
v 3.5 5 3.5
v -7.5 1 2.5
v -7.5 2 2.5
v -5.5 1 2.5
v -5.5 2 2.5
v -5.5 3 2.5
v -2.5 2 2.5
v -2.5 3 2.5
v 4.5 4 2.5
v 4.5 5 2.5
v 5.5 4 2.5
v 5.5 5 2.5
v 0.5 4 1.5
v 0.5 5 1.5
v 1.5 4 1.5
v 1.5 5 1.5
v -6.5 2 0.5
v -6.5 3 0.5
v -4.5 2 0.5
v -4.5 3 0.5
v -4.5 4 0.5
v -1.5 4 0.5
v -1.5 5 0.5
v -0.5 3 0.5
v -0.5 5 0.5
v -5.5 3 -1.5
v -5.5 4 -1.5
v -3.5 3 -1.5
v -3.5 4 -1.5
v -3.5 5 -1.5
v -1.5 4 -1.5
v -1.5 5 -1.5
v -1.5 6 -1.5
v 1.5 5 -1.5
v 1.5 6 -1.5
v 2.5 5 -1.5
v 2.5 6 -1.5
v 3.5 5 -1.5
v 3.5 6 -1.5
v 1.5 5 -2.5
v 1.5 6 -2.5
v 2.5 5 -2.5
v 2.5 6 -2.5
v 4.5 5 -2.5
v 4.5 6 -2.5
v 5.5 5 -2.5
v 5.5 6 -2.5
v -4.5 4 -3.5
v -4.5 5 -3.5
v -3.5 4 -3.5
v -3.5 5 -3.5
v -3.5 6 -3.5
v 1.5 5 -3.5
v 1.5 6 -3.5
v 1.5 7 -3.5
v 2.5 6 -3.5
v 3.5 5 -3.5
v 3.5 6 -3.5
v 3.5 7 -3.5
v 4.5 5 -3.5
v 4.5 6 -3.5
v 2.5 5 -4.5
v 2.5 6 -4.5
v 3.5 5 -4.5
v 3.5 6 -4.5
v 6.5 4 -4.5
v 6.5 5 -4.5
v 7.5 4 -4.5
v 7.5 5 -4.5
v -3.5 4 -5.5
v -3.5 5 -5.5
v -2.5 4 -5.5
v -2.5 5 -5.5
v -2.5 6 -5.5
v 2.5 5 -5.5
v 2.5 6 -5.5
v 3.5 5 -5.5
v 3.5 6 -5.5
v 4.5 5 -5.5
v 5.5 5 -5.5
v 5.5 6 -5.5
v 4.5 4 -6.5
v 4.5 5 -6.5
v 5.5 4 -6.5
v 6.5 3 -6.5
v 6.5 4 -6.5
v 6.5 5 -6.5
v 7.5 3 -6.5
v 7.5 4 -6.5
v -2.5 4 -7.5
v -2.5 5 -7.5
v 4.5 4 -7.5
v 4.5 5 -7.5
v 5.5 3 -7.5
v 5.5 4 -7.5
v 6.5 3 -7.5
v 6.5 4 -7.5
v 7.5 3 -7.5
v 7.5 4 -7.5
v 8.5 3 -7.5
v 8.5 4 -7.5
v 6.5 3 -8.5
v 6.5 4 -8.5
v 7.5 3 -8.5
v 7.5 4 -8.5
v -8.5 0 8.5
v -6.5 0 8.5
v -5.5 0 8.5
v -4.5 0 8.5
v -8.5 0 6.5
v -6.5 0 6.5
v -5.5 0 6.5
v -4.5 0 6.5
v -8.5 0 5.5
v -6.5 0 5.5
v -5.5 0 5.5
v -8.5 0 4.5
v -6.5 0 4.5
v -3.5 1 7.5
v -2.5 1 7.5
v -5.5 1 6.5
v -4.5 1 6.5
v -6.5 1 5.5
v -5.5 1 5.5
v -3.5 1 5.5
v -2.5 1 5.5
v -6.5 1 4.5
v -4.5 1 4.5
v -7.5 1 3.5
v -5.5 1 3.5
v -7.5 1 2.5
v -5.5 1 2.5
v -1.5 2 6.5
v -0.5 2 6.5
v -3.5 2 5.5
v -2.5 2 5.5
v -4.5 2 4.5
v -3.5 2 4.5
v -1.5 2 4.5
v -0.5 2 4.5
v -5.5 2 3.5
v -4.5 2 3.5
v -5.5 2 2.5
v -2.5 2 2.5
v -6.5 2 1.5
v -4.5 2 1.5
v -6.5 2 0.5
v -4.5 2 0.5
v 0.5 3 5.5
v 1.5 3 5.5
v -1.5 3 4.5
v -0.5 3 4.5
v 0.5 3 3.5
v 1.5 3 3.5
v -2.5 3 2.5
v -1.5 3 2.5
v -4.5 3 1.5
v -2.5 3 1.5
v -4.5 3 0.5
v -0.5 3 0.5
v -5.5 3 -0.5
v -3.5 3 -0.5
v -5.5 3 -1.5
v -3.5 3 -1.5
v 6.5 3 -5.5
v 7.5 3 -5.5
v 5.5 3 -6.5
v 6.5 3 -6.5
v 7.5 3 -6.5
v 8.5 3 -6.5
v 5.5 3 -7.5
v 6.5 3 -7.5
v 7.5 3 -7.5
v 8.5 3 -7.5
v 6.5 3 -8.5
v 7.5 3 -8.5
v 2.5 4 4.5
v 3.5 4 4.5
v 0.5 4 3.5
v 1.5 4 3.5
v 2.5 4 3.5
v 3.5 4 3.5
v 4.5 4 3.5
v 5.5 4 3.5
v 4.5 4 2.5
v 5.5 4 2.5
v 6.5 4 2.5
v 7.5 4 2.5
v 0.5 4 1.5
v 1.5 4 1.5
v -3.5 4 -0.5
v -1.5 4 -0.5
v -3.5 4 -1.5
v -1.5 4 -1.5
v -4.5 4 -2.5
v -3.5 4 -2.5
v -4.5 4 -3.5
v -3.5 4 -3.5
v -3.5 4 -4.5
v -2.5 4 -4.5
v 5.5 4 -4.5
v 6.5 4 -4.5
v 7.5 4 -4.5
v -3.5 4 -5.5
v -2.5 4 -5.5
v 4.5 4 -5.5
v 5.5 4 -5.5
v 6.5 4 -5.5
v -2.5 4 -6.5
v 4.5 4 -6.5
v 5.5 4 -6.5
v 6.5 4 -6.5
v -2.5 4 -7.5
v 4.5 4 -7.5
v 2.5 5 3.5
v 3.5 5 3.5
v 4.5 5 2.5
v 5.5 5 2.5
v 0.5 5 1.5
v 1.5 5 1.5
v -0.5 5 0.5
v 0.5 5 0.5
v -1.5 5 -0.5
v -0.5 5 -0.5
v -1.5 5 -1.5
v 1.5 5 -1.5
v 2.5 5 -1.5
v 3.5 5 -1.5
v -3.5 5 -2.5
v 1.5 5 -2.5
v 2.5 5 -2.5
v 3.5 5 -2.5
v 4.5 5 -2.5
v 5.5 5 -2.5
v -3.5 5 -3.5
v 1.5 5 -3.5
v 2.5 5 -3.5
v 3.5 5 -3.5
v 4.5 5 -3.5
v 5.5 5 -3.5
v -2.5 5 -4.5
v 2.5 5 -4.5
v 3.5 5 -4.5
v 4.5 5 -4.5
v 5.5 5 -4.5
v -2.5 5 -5.5
v 2.5 5 -5.5
v 3.5 5 -5.5
v 4.5 5 -5.5
v 5.5 5 -5.5
v 2.5 6 -1.5
v 3.5 6 -1.5
v 1.5 6 -2.5
v 2.5 6 -2.5
v 3.5 6 -2.5
v 1.5 6 -3.5
v 2.5 6 -3.5
v 3.5 6 -3.5
v -8.5 1 8.5
v -6.5 1 8.5
v -5.5 1 8.5
v -4.5 1 8.5
v -8.5 1 6.5
v -6.5 1 6.5
v -5.5 1 6.5
v -4.5 1 6.5
v -8.5 1 5.5
v -6.5 1 5.5
v -5.5 1 5.5
v -8.5 1 4.5
v -6.5 1 4.5
v -3.5 2 7.5
v -2.5 2 7.5
v -5.5 2 6.5
v -4.5 2 6.5
v -6.5 2 5.5
v -5.5 2 5.5
v -3.5 2 5.5
v -2.5 2 5.5
v -6.5 2 4.5
v -4.5 2 4.5
v -7.5 2 3.5
v -5.5 2 3.5
v -7.5 2 2.5
v -5.5 2 2.5
v -1.5 3 6.5
v -0.5 3 6.5
v -3.5 3 5.5
v -2.5 3 5.5
v -4.5 3 4.5
v -3.5 3 4.5
v -1.5 3 4.5
v -0.5 3 4.5
v -5.5 3 3.5
v -4.5 3 3.5
v -5.5 3 2.5
v -2.5 3 2.5
v -6.5 3 1.5
v -4.5 3 1.5
v -6.5 3 0.5
v -4.5 3 0.5
v 0.5 4 5.5
v 1.5 4 5.5
v -1.5 4 4.5
v -0.5 4 4.5
v 0.5 4 3.5
v 1.5 4 3.5
v -2.5 4 2.5
v -1.5 4 2.5
v -4.5 4 1.5
v -2.5 4 1.5
v -1.5 4 1.5
v -0.5 4 1.5
v -4.5 4 0.5
v -1.5 4 0.5
v -5.5 4 -0.5
v -3.5 4 -0.5
v -5.5 4 -1.5
v -3.5 4 -1.5
v 6.5 4 -5.5
v 7.5 4 -5.5
v 5.5 4 -6.5
v 6.5 4 -6.5
v 7.5 4 -6.5
v 8.5 4 -6.5
v 5.5 4 -7.5
v 6.5 4 -7.5
v 7.5 4 -7.5
v 8.5 4 -7.5
v 6.5 4 -8.5
v 7.5 4 -8.5
v 2.5 5 4.5
v 3.5 5 4.5
v 0.5 5 3.5
v 1.5 5 3.5
v 2.5 5 3.5
v 3.5 5 3.5
v 4.5 5 3.5
v 5.5 5 3.5
v 4.5 5 2.5
v 5.5 5 2.5
v 6.5 5 2.5
v 7.5 5 2.5
v -1.5 5 1.5
v -0.5 5 1.5
v 0.5 5 1.5
v 1.5 5 1.5
v -1.5 5 0.5
v -0.5 5 0.5
v -3.5 5 -0.5
v -1.5 5 -0.5
v -3.5 5 -1.5
v -1.5 5 -1.5
v -4.5 5 -2.5
v -3.5 5 -2.5
v -4.5 5 -3.5
v -3.5 5 -3.5
v -3.5 5 -4.5
v -2.5 5 -4.5
v 5.5 5 -4.5
v 6.5 5 -4.5
v 7.5 5 -4.5
v -3.5 5 -5.5
v -2.5 5 -5.5
v 4.5 5 -5.5
v 5.5 5 -5.5
v -2.5 5 -6.5
v 4.5 5 -6.5
v 6.5 5 -6.5
v -2.5 5 -7.5
v 4.5 5 -7.5
v 2.5 6 3.5
v 3.5 6 3.5
v 4.5 6 2.5
v 5.5 6 2.5
v 0.5 6 1.5
v 1.5 6 1.5
v -0.5 6 0.5
v 0.5 6 0.5
v -1.5 6 -0.5
v -0.5 6 -0.5
v -1.5 6 -1.5
v 1.5 6 -1.5
v 2.5 6 -1.5
v 3.5 6 -1.5
v -3.5 6 -2.5
v 1.5 6 -2.5
v 2.5 6 -2.5
v 3.5 6 -2.5
v 4.5 6 -2.5
v 5.5 6 -2.5
v -3.5 6 -3.5
v 1.5 6 -3.5
v 2.5 6 -3.5
v 3.5 6 -3.5
v 4.5 6 -3.5
v 5.5 6 -3.5
v -2.5 6 -4.5
v 2.5 6 -4.5
v 3.5 6 -4.5
v 4.5 6 -4.5
v -2.5 6 -5.5
v 2.5 6 -5.5
v 3.5 6 -5.5
v 5.5 6 -5.5
v 2.5 7 -1.5
v 3.5 7 -1.5
v 1.5 7 -2.5
v 2.5 7 -2.5
v 1.5 7 -3.5
v 3.5 7 -3.5

# faces
f 5/1/1 2/1/1 1/1/1
f 6/1/1 2/1/1 5/1/1
f 7/1/1 4/1/1 3/1/1
f 8/1/1 4/1/1 7/1/1
f 11/1/1 10/1/1 9/1/1
f 12/1/1 10/1/1 11/1/1
f 15/1/1 14/1/1 13/1/1
f 16/1/1 14/1/1 15/1/1
f 18/1/1 17/1/1 16/1/1
f 19/1/1 17/1/1 18/1/1
f 22/1/1 21/1/1 20/1/1
f 23/1/1 21/1/1 22/1/1
f 26/1/1 25/1/1 24/1/1
f 27/1/1 25/1/1 26/1/1
f 29/1/1 28/1/1 27/1/1
f 30/1/1 28/1/1 29/1/1
f 33/1/1 32/1/1 31/1/1
f 34/1/1 32/1/1 33/1/1
f 37/1/1 36/1/1 35/1/1
f 38/1/1 36/1/1 37/1/1
f 41/1/1 40/1/1 39/1/1
f 42/1/1 40/1/1 41/1/1
f 45/1/1 44/1/1 43/1/1
f 46/1/1 44/1/1 45/1/1
f 49/1/1 48/1/1 47/1/1
f 50/1/1 48/1/1 49/1/1
f 53/1/1 52/1/1 51/1/1
f 54/1/1 52/1/1 53/1/1
f 56/1/1 55/1/1 54/1/1
f 57/1/1 55/1/1 56/1/1
f 62/1/1 59/1/1 58/1/1
f 63/1/1 59/1/1 62/1/1
f 66/1/1 61/1/1 60/1/1
f 67/1/1 61/1/1 66/1/1
f 68/1/1 65/1/1 64/1/1
f 69/1/1 65/1/1 68/1/1
f 72/1/1 71/1/1 70/1/1
f 73/1/1 71/1/1 72/1/1
f 78/1/1 75/1/1 74/1/1
f 79/1/1 75/1/1 78/1/1
f 80/1/1 77/1/1 76/1/1
f 81/1/1 77/1/1 80/1/1
f 84/1/1 83/1/1 82/1/1
f 85/1/1 83/1/1 84/1/1
f 87/1/1 86/1/1 85/1/1
f 88/1/1 86/1/1 87/1/1
f 91/1/1 90/1/1 89/1/1
f 92/1/1 90/1/1 91/1/1
f 95/1/1 94/1/1 93/1/1
f 96/1/1 94/1/1 95/1/1
f 99/1/1 98/1/1 97/1/1
f 100/1/1 98/1/1 99/1/1
f 103/1/1 102/1/1 101/1/1
f 104/1/1 102/1/1 103/1/1
f 106/1/1 105/1/1 104/1/1
f 107/1/1 105/1/1 106/1/1
f 109/1/1 108/1/1 107/1/1
f 110/1/1 108/1/1 109/1/1
f 113/1/1 112/1/1 111/1/1
f 114/1/1 112/1/1 113/1/1
f 116/1/1 115/1/1 114/1/1
f 117/1/1 115/1/1 116/1/1
f 120/1/1 119/1/1 118/1/1
f 121/1/1 119/1/1 120/1/1
f 125/1/1 122/1/1 121/1/1
f 126/1/1 122/1/1 125/1/1
f 128/1/1 124/1/1 123/1/1
f 129/1/1 124/1/1 128/1/1
f 130/1/1 127/1/1 126/1/1
f 131/1/1 127/1/1 130/1/1
f 136/1/1 133/1/1 132/1/1
f 137/1/1 133/1/1 136/1/1
f 138/1/1 135/1/1 134/1/1
f 139/1/1 135/1/1 138/1/1
f 144/1/1 141/1/1 140/1/1
f 145/1/1 141/1/1 144/1/1
f 149/1/1 143/1/1 142/1/1
f 150/1/1 143/1/1 149/1/1
f 151/1/1 146/1/1 145/1/1
f 152/1/1 146/1/1 151/1/1
f 153/1/1 148/1/1 147/1/1
f 154/1/1 148/1/1 153/1/1
f 159/1/1 156/1/1 155/1/1
f 160/1/1 156/1/1 159/1/1
f 161/1/1 158/1/1 157/1/1
f 162/1/1 158/1/1 161/1/1
f 169/1/1 164/1/1 163/1/1
f 170/1/1 164/1/1 169/1/1
f 171/1/1 166/1/1 165/1/1
f 172/1/1 166/1/1 171/1/1
f 173/1/1 168/1/1 167/1/1
f 174/1/1 168/1/1 173/1/1
f 177/1/1 176/1/1 175/1/1
f 178/1/1 176/1/1 177/1/1
f 179/1/2 180/1/2 183/1/2
f 183/1/2 180/1/2 184/1/2
f 181/1/2 182/1/2 185/1/2
f 185/1/2 182/1/2 186/1/2
f 187/1/2 188/1/2 189/1/2
f 189/1/2 188/1/2 190/1/2
f 191/1/2 192/1/2 193/1/2
f 193/1/2 192/1/2 194/1/2
f 195/1/2 196/1/2 197/1/2
f 197/1/2 196/1/2 198/1/2
f 198/1/2 199/1/2 200/1/2
f 200/1/2 199/1/2 201/1/2
f 202/1/2 203/1/2 204/1/2
f 204/1/2 203/1/2 205/1/2
f 206/1/2 207/1/2 208/1/2
f 208/1/2 207/1/2 209/1/2
f 210/1/2 211/1/2 212/1/2
f 212/1/2 211/1/2 213/1/2
f 214/1/2 215/1/2 216/1/2
f 216/1/2 215/1/2 217/1/2
f 217/1/2 218/1/2 219/1/2
f 219/1/2 218/1/2 220/1/2
f 221/1/2 222/1/2 223/1/2
f 223/1/2 222/1/2 224/1/2
f 225/1/2 226/1/2 227/1/2
f 227/1/2 226/1/2 228/1/2
f 229/1/2 230/1/2 231/1/2
f 231/1/2 230/1/2 232/1/2
f 232/1/2 233/1/2 234/1/2
f 234/1/2 233/1/2 235/1/2
f 235/1/2 233/1/2 236/1/2
f 236/1/2 233/1/2 237/1/2
f 238/1/2 239/1/2 240/1/2
f 240/1/2 239/1/2 241/1/2
f 241/1/2 242/1/2 243/1/2
f 243/1/2 242/1/2 244/1/2
f 244/1/2 245/1/2 248/1/2
f 248/1/2 245/1/2 249/1/2
f 246/1/2 247/1/2 250/1/2
f 250/1/2 247/1/2 251/1/2
f 252/1/2 253/1/2 256/1/2
f 256/1/2 253/1/2 257/1/2
f 254/1/2 255/1/2 258/1/2
f 258/1/2 255/1/2 259/1/2
f 260/1/2 261/1/2 262/1/2
f 262/1/2 261/1/2 263/1/2
f 263/1/2 264/1/2 267/1/2
f 267/1/2 264/1/2 268/1/2
f 265/1/2 266/1/2 270/1/2
f 270/1/2 266/1/2 271/1/2
f 268/1/2 269/1/2 272/1/2
f 269/1/2 270/1/2 272/1/2
f 272/1/2 270/1/2 273/1/2
f 274/1/2 275/1/2 278/1/2
f 278/1/2 275/1/2 279/1/2
f 276/1/2 277/1/2 280/1/2
f 280/1/2 277/1/2 281/1/2
f 282/1/2 283/1/2 284/1/2
f 284/1/2 283/1/2 285/1/2
f 285/1/2 286/1/2 290/1/2
f 290/1/2 286/1/2 291/1/2
f 288/1/2 289/1/2 292/1/2
f 287/1/2 288/1/2 292/1/2
f 292/1/2 289/1/2 293/1/2
f 294/1/2 295/1/2 298/1/2
f 298/1/2 295/1/2 299/1/2
f 296/1/2 297/1/2 300/1/2
f 297/1/2 298/1/2 300/1/2
f 300/1/2 298/1/2 301/1/2
f 302/1/2 303/1/2 308/1/2
f 308/1/2 303/1/2 309/1/2
f 304/1/2 305/1/2 310/1/2
f 310/1/2 305/1/2 311/1/2
f 306/1/2 307/1/2 312/1/2
f 312/1/2 307/1/2 313/1/2
f 314/1/2 315/1/2 316/1/2
f 316/1/2 315/1/2 317/1/2
f 320/1/3 319/1/3 318/1/3
f 321/1/3 319/1/3 320/1/3
f 324/1/3 323/1/3 322/1/3
f 325/1/3 323/1/3 324/1/3
f 328/1/3 327/1/3 326/1/3
f 329/1/3 327/1/3 328/1/3
f 332/1/3 331/1/3 330/1/3
f 333/1/3 331/1/3 332/1/3
f 335/1/3 334/1/3 333/1/3
f 336/1/3 334/1/3 335/1/3
f 339/1/3 338/1/3 337/1/3
f 340/1/3 338/1/3 339/1/3
f 343/1/3 342/1/3 341/1/3
f 344/1/3 342/1/3 343/1/3
f 346/1/3 345/1/3 344/1/3
f 347/1/3 345/1/3 346/1/3
f 350/1/3 349/1/3 348/1/3
f 351/1/3 349/1/3 350/1/3
f 354/1/3 353/1/3 352/1/3
f 355/1/3 353/1/3 354/1/3
f 358/1/3 357/1/3 356/1/3
f 359/1/3 357/1/3 358/1/3
f 362/1/3 361/1/3 360/1/3
f 363/1/3 361/1/3 362/1/3
f 366/1/3 365/1/3 364/1/3
f 367/1/3 365/1/3 366/1/3
f 370/1/3 369/1/3 368/1/3
f 371/1/3 369/1/3 370/1/3
f 373/1/3 372/1/3 371/1/3
f 374/1/3 372/1/3 373/1/3
f 377/1/3 376/1/3 375/1/3
f 378/1/3 376/1/3 377/1/3
f 381/1/3 380/1/3 379/1/3
f 382/1/3 380/1/3 381/1/3
f 385/1/3 384/1/3 383/1/3
f 386/1/3 384/1/3 385/1/3
f 389/1/3 388/1/3 387/1/3
f 390/1/3 388/1/3 389/1/3
f 393/1/3 392/1/3 391/1/3
f 394/1/3 392/1/3 393/1/3
f 397/1/3 396/1/3 395/1/3
f 398/1/3 396/1/3 397/1/3
f 401/1/3 400/1/3 399/1/3
f 402/1/3 400/1/3 401/1/3
f 404/1/3 403/1/3 402/1/3
f 405/1/3 403/1/3 404/1/3
f 408/1/3 407/1/3 406/1/3
f 409/1/3 407/1/3 408/1/3
f 412/1/3 411/1/3 410/1/3
f 413/1/3 411/1/3 412/1/3
f 416/1/3 415/1/3 414/1/3
f 417/1/3 415/1/3 416/1/3
f 420/1/3 419/1/3 418/1/3
f 421/1/3 419/1/3 420/1/3
f 423/1/3 422/1/3 421/1/3
f 424/1/3 422/1/3 423/1/3
f 426/1/3 425/1/3 424/1/3
f 427/1/3 425/1/3 426/1/3
f 430/1/3 429/1/3 428/1/3
f 431/1/3 429/1/3 430/1/3
f 433/1/3 432/1/3 431/1/3
f 434/1/3 432/1/3 433/1/3
f 437/1/3 436/1/3 435/1/3
f 438/1/3 436/1/3 437/1/3
f 440/1/3 439/1/3 438/1/3
f 441/1/3 439/1/3 440/1/3
f 443/1/3 442/1/3 441/1/3
f 444/1/3 442/1/3 443/1/3
f 447/1/3 446/1/3 445/1/3
f 448/1/3 446/1/3 447/1/3
f 451/1/3 450/1/3 449/1/3
f 452/1/3 450/1/3 451/1/3
f 455/1/3 454/1/3 453/1/3
f 456/1/3 454/1/3 455/1/3
f 459/1/3 458/1/3 457/1/3
f 460/1/3 458/1/3 459/1/3
f 462/1/3 461/1/3 460/1/3
f 463/1/3 461/1/3 462/1/3
f 466/1/3 465/1/3 464/1/3
f 467/1/3 465/1/3 466/1/3
f 470/1/3 469/1/3 468/1/3
f 471/1/3 469/1/3 470/1/3
f 474/1/3 473/1/3 472/1/3
f 475/1/3 473/1/3 474/1/3
f 478/1/3 477/1/3 476/1/3
f 479/1/3 477/1/3 478/1/3
f 482/1/3 481/1/3 480/1/3
f 483/1/3 481/1/3 482/1/3
f 486/1/3 485/1/3 484/1/3
f 487/1/3 485/1/3 486/1/3
f 490/1/3 489/1/3 488/1/3
f 491/1/3 489/1/3 490/1/3
f 494/1/3 493/1/3 492/1/3
f 495/1/3 493/1/3 494/1/3
f 496/1/4 497/1/4 498/1/4
f 498/1/4 497/1/4 499/1/4
f 500/1/4 501/1/4 502/1/4
f 502/1/4 501/1/4 503/1/4
f 504/1/4 505/1/4 506/1/4
f 506/1/4 505/1/4 507/1/4
f 508/1/4 509/1/4 510/1/4
f 510/1/4 509/1/4 511/1/4
f 512/1/4 513/1/4 514/1/4
f 514/1/4 513/1/4 515/1/4
f 515/1/4 516/1/4 517/1/4
f 517/1/4 516/1/4 518/1/4
f 519/1/4 520/1/4 521/1/4
f 521/1/4 520/1/4 522/1/4
f 523/1/4 524/1/4 525/1/4
f 525/1/4 524/1/4 526/1/4
f 527/1/4 528/1/4 529/1/4
f 529/1/4 528/1/4 530/1/4
f 531/1/4 532/1/4 533/1/4
f 533/1/4 532/1/4 534/1/4
f 534/1/4 535/1/4 536/1/4
f 536/1/4 535/1/4 537/1/4
f 538/1/4 539/1/4 540/1/4
f 540/1/4 539/1/4 541/1/4
f 542/1/4 543/1/4 544/1/4
f 544/1/4 543/1/4 545/1/4
f 546/1/4 547/1/4 548/1/4
f 548/1/4 547/1/4 549/1/4
f 549/1/4 550/1/4 551/1/4
f 549/1/4 551/1/4 553/1/4
f 551/1/4 552/1/4 553/1/4
f 553/1/4 552/1/4 554/1/4
f 555/1/4 556/1/4 557/1/4
f 557/1/4 556/1/4 558/1/4
f 558/1/4 559/1/4 560/1/4
f 560/1/4 559/1/4 561/1/4
f 561/1/4 562/1/4 563/1/4
f 563/1/4 562/1/4 564/1/4
f 565/1/4 566/1/4 567/1/4
f 567/1/4 566/1/4 568/1/4
f 569/1/4 570/1/4 571/1/4
f 571/1/4 570/1/4 572/1/4
f 573/1/4 574/1/4 575/1/4
f 575/1/4 574/1/4 576/1/4
f 577/1/4 578/1/4 579/1/4
f 579/1/4 578/1/4 580/1/4
f 580/1/4 581/1/4 582/1/4
f 582/1/4 581/1/4 583/1/4
f 583/1/4 584/1/4 585/1/4
f 585/1/4 584/1/4 587/1/4
f 587/1/4 584/1/4 588/1/4
f 586/1/4 587/1/4 589/1/4
f 589/1/4 587/1/4 590/1/4
f 591/1/4 592/1/4 593/1/4
f 593/1/4 592/1/4 594/1/4
f 595/1/4 596/1/4 597/1/4
f 597/1/4 596/1/4 598/1/4
f 599/1/4 600/1/4 601/1/4
f 601/1/4 600/1/4 602/1/4
f 602/1/4 603/1/4 604/1/4
f 604/1/4 603/1/4 605/1/4
f 606/1/4 607/1/4 608/1/4
f 608/1/4 607/1/4 609/1/4
f 609/1/4 607/1/4 610/1/4
f 611/1/4 612/1/4 613/1/4
f 613/1/4 612/1/4 615/1/4
f 615/1/4 612/1/4 616/1/4
f 614/1/4 615/1/4 617/1/4
f 617/1/4 615/1/4 618/1/4
f 619/1/4 620/1/4 621/1/4
f 621/1/4 620/1/4 622/1/4
f 623/1/4 624/1/4 625/1/4
f 625/1/4 624/1/4 626/1/4
f 627/1/4 628/1/4 629/1/4
f 629/1/4 628/1/4 630/1/4
f 631/1/4 632/1/4 633/1/4
f 633/1/4 632/1/4 634/1/4
f 639/1/5 636/1/5 635/1/5
f 640/1/5 636/1/5 639/1/5
f 641/1/5 638/1/5 637/1/5
f 642/1/5 638/1/5 641/1/5
f 644/1/5 641/1/5 640/1/5
f 645/1/5 641/1/5 644/1/5
f 646/1/5 644/1/5 643/1/5
f 647/1/5 644/1/5 646/1/5
f 653/1/5 651/1/5 650/1/5
f 654/1/5 649/1/5 648/1/5
f 655/1/5 649/1/5 654/1/5
f 656/1/5 653/1/5 652/1/5
f 657/1/5 651/1/5 653/1/5
f 657/1/5 653/1/5 656/1/5
f 660/1/5 659/1/5 658/1/5
f 661/1/5 659/1/5 660/1/5
f 667/1/5 665/1/5 664/1/5
f 668/1/5 663/1/5 662/1/5
f 669/1/5 663/1/5 668/1/5
f 671/1/5 667/1/5 666/1/5
f 672/1/5 671/1/5 670/1/5
f 673/1/5 665/1/5 667/1/5
f 673/1/5 671/1/5 672/1/5
f 673/1/5 667/1/5 671/1/5
f 676/1/5 675/1/5 674/1/5
f 677/1/5 675/1/5 676/1/5
f 682/1/5 679/1/5 678/1/5
f 683/1/5 679/1/5 682/1/5
f 685/1/5 681/1/5 680/1/5
f 687/1/5 685/1/5 684/1/5
f 688/1/5 687/1/5 686/1/5
f 689/1/5 681/1/5 685/1/5
f 689/1/5 687/1/5 688/1/5
f 689/1/5 685/1/5 687/1/5
f 692/1/5 691/1/5 690/1/5
f 693/1/5 691/1/5 692/1/5
f 697/1/5 695/1/5 694/1/5
f 698/1/5 695/1/5 697/1/5
f 700/1/5 697/1/5 696/1/5
f 701/1/5 697/1/5 700/1/5
f 702/1/5 699/1/5 698/1/5
f 703/1/5 699/1/5 702/1/5
f 704/1/5 702/1/5 701/1/5
f 705/1/5 702/1/5 704/1/5
f 710/1/5 707/1/5 706/1/5
f 711/1/5 707/1/5 710/1/5
f 714/1/5 713/1/5 712/1/5
f 715/1/5 713/1/5 714/1/5
f 718/1/5 709/1/5 708/1/5
f 719/1/5 709/1/5 718/1/5
f 722/1/5 721/1/5 720/1/5
f 723/1/5 721/1/5 722/1/5
f 726/1/5 725/1/5 724/1/5
f 727/1/5 725/1/5 726/1/5
f 731/1/5 717/1/5 716/1/5
f 732/1/5 717/1/5 731/1/5
f 733/1/5 729/1/5 728/1/5
f 734/1/5 729/1/5 733/1/5
f 736/1/5 731/1/5 730/1/5
f 737/1/5 731/1/5 736/1/5
f 739/1/5 736/1/5 735/1/5
f 739/1/5 737/1/5 736/1/5
f 740/1/5 737/1/5 739/1/5
f 741/1/5 737/1/5 740/1/5
f 742/1/5 739/1/5 738/1/5
f 743/1/5 739/1/5 742/1/5
f 751/1/5 749/1/5 748/1/5
f 753/1/5 751/1/5 750/1/5
f 754/1/5 753/1/5 752/1/5
f 755/1/5 749/1/5 751/1/5
f 755/1/5 753/1/5 754/1/5
f 755/1/5 751/1/5 753/1/5
f 756/1/5 745/1/5 744/1/5
f 757/1/5 745/1/5 756/1/5
f 759/1/5 756/1/5 755/1/5
f 760/1/5 756/1/5 759/1/5
f 762/1/5 747/1/5 746/1/5
f 763/1/5 747/1/5 762/1/5
f 764/1/5 759/1/5 758/1/5
f 765/1/5 759/1/5 764/1/5
f 767/1/5 762/1/5 761/1/5
f 768/1/5 762/1/5 767/1/5
f 771/1/5 767/1/5 766/1/5
f 772/1/5 767/1/5 771/1/5
f 773/1/5 769/1/5 768/1/5
f 774/1/5 769/1/5 773/1/5
f 775/1/5 771/1/5 770/1/5
f 776/1/5 771/1/5 775/1/5
f 777/1/5 774/1/5 773/1/5
f 777/1/5 773/1/5 772/1/5
f 778/1/5 774/1/5 777/1/5
f 779/1/5 774/1/5 778/1/5
f 783/1/5 781/1/5 780/1/5
f 784/1/5 781/1/5 783/1/5
f 785/1/5 783/1/5 782/1/5
f 785/1/5 784/1/5 783/1/5
f 786/1/5 784/1/5 785/1/5
f 787/1/5 784/1/5 786/1/5
f 788/1/6 789/1/6 792/1/6
f 792/1/6 789/1/6 793/1/6
f 790/1/6 791/1/6 794/1/6
f 794/1/6 791/1/6 795/1/6
f 793/1/6 794/1/6 797/1/6
f 797/1/6 794/1/6 798/1/6
f 796/1/6 797/1/6 799/1/6
f 799/1/6 797/1/6 800/1/6
f 803/1/6 804/1/6 806/1/6
f 801/1/6 802/1/6 807/1/6
f 807/1/6 802/1/6 808/1/6
f 805/1/6 806/1/6 809/1/6
f 806/1/6 804/1/6 810/1/6
f 809/1/6 806/1/6 810/1/6
f 811/1/6 812/1/6 813/1/6
f 813/1/6 812/1/6 814/1/6
f 817/1/6 818/1/6 820/1/6
f 815/1/6 816/1/6 821/1/6
f 821/1/6 816/1/6 822/1/6
f 819/1/6 820/1/6 824/1/6
f 823/1/6 824/1/6 825/1/6
f 820/1/6 818/1/6 826/1/6
f 825/1/6 824/1/6 826/1/6
f 824/1/6 820/1/6 826/1/6
f 827/1/6 828/1/6 829/1/6
f 829/1/6 828/1/6 830/1/6
f 831/1/6 832/1/6 835/1/6
f 835/1/6 832/1/6 836/1/6
f 833/1/6 834/1/6 838/1/6
f 837/1/6 838/1/6 840/1/6
f 838/1/6 834/1/6 841/1/6
f 840/1/6 838/1/6 841/1/6
f 841/1/6 834/1/6 842/1/6
f 839/1/6 840/1/6 843/1/6
f 840/1/6 841/1/6 843/1/6
f 843/1/6 841/1/6 844/1/6
f 845/1/6 846/1/6 847/1/6
f 847/1/6 846/1/6 848/1/6
f 849/1/6 850/1/6 852/1/6
f 852/1/6 850/1/6 853/1/6
f 851/1/6 852/1/6 855/1/6
f 855/1/6 852/1/6 856/1/6
f 853/1/6 854/1/6 857/1/6
f 857/1/6 854/1/6 858/1/6
f 856/1/6 857/1/6 859/1/6
f 859/1/6 857/1/6 860/1/6
f 861/1/6 862/1/6 865/1/6
f 865/1/6 862/1/6 866/1/6
f 867/1/6 868/1/6 869/1/6
f 869/1/6 868/1/6 870/1/6
f 863/1/6 864/1/6 875/1/6
f 875/1/6 864/1/6 876/1/6
f 873/1/6 874/1/6 877/1/6
f 877/1/6 874/1/6 878/1/6
f 879/1/6 880/1/6 881/1/6
f 881/1/6 880/1/6 882/1/6
f 883/1/6 884/1/6 885/1/6
f 885/1/6 884/1/6 886/1/6
f 871/1/6 872/1/6 890/1/6
f 890/1/6 872/1/6 891/1/6
f 887/1/6 888/1/6 892/1/6
f 892/1/6 888/1/6 893/1/6
f 889/1/6 890/1/6 895/1/6
f 894/1/6 895/1/6 897/1/6
f 895/1/6 890/1/6 898/1/6
f 897/1/6 895/1/6 898/1/6
f 896/1/6 897/1/6 899/1/6
f 899/1/6 897/1/6 900/1/6
f 905/1/6 906/1/6 908/1/6
f 907/1/6 908/1/6 910/1/6
f 909/1/6 910/1/6 911/1/6
f 908/1/6 906/1/6 912/1/6
f 911/1/6 910/1/6 912/1/6
f 910/1/6 908/1/6 912/1/6
f 901/1/6 902/1/6 913/1/6
f 913/1/6 902/1/6 914/1/6
f 912/1/6 913/1/6 916/1/6
f 916/1/6 913/1/6 917/1/6
f 903/1/6 904/1/6 919/1/6
f 919/1/6 904/1/6 920/1/6
f 915/1/6 916/1/6 921/1/6
f 921/1/6 916/1/6 922/1/6
f 918/1/6 919/1/6 924/1/6
f 924/1/6 919/1/6 925/1/6
f 923/1/6 924/1/6 928/1/6
f 928/1/6 924/1/6 929/1/6
f 925/1/6 926/1/6 930/1/6
f 927/1/6 928/1/6 931/1/6
f 931/1/6 928/1/6 932/1/6
f 929/1/6 930/1/6 933/1/6
f 930/1/6 926/1/6 934/1/6
f 933/1/6 930/1/6 934/1/6
f 935/1/6 936/1/6 938/1/6
f 937/1/6 938/1/6 939/1/6
f 938/1/6 936/1/6 940/1/6
f 939/1/6 938/1/6 940/1/6
